"ttZ_muR_muF" : "Title: "ttZ_muR_muF",
"ttZShowering" : "Title: "ttZ showering",
"ttZ_A14" : "Title: "ttZ A14",
"PDF4LHC_NP_1" : "Title: "PDF4LHC 1",
"PDF4LHC_NP_2" : "Title: "PDF4LHC 2",
"PDF4LHC_NP_3" : "Title: "PDF4LHC 3",
"PDF4LHC_NP_4" : "Title: "PDF4LHC 4",
"PDF4LHC_NP_5" : "Title: "PDF4LHC 5",
"PDF4LHC_NP_6" : "Title: "PDF4LHC 6",
"PDF4LHC_NP_7" : "Title: "PDF4LHC 7",
"PDF4LHC_NP_8" : "Title: "PDF4LHC 8",
"PDF4LHC_NP_9" : "Title: "PDF4LHC 9",
"PDF4LHC_NP_10" : "Title: "PDF4LHC 10",
"PDF4LHC_NP_11" : "Title: "PDF4LHC 11",
"PDF4LHC_NP_12" : "Title: "PDF4LHC 12",
"PDF4LHC_NP_13" : "Title: "PDF4LHC 13",
"PDF4LHC_NP_14" : "Title: "PDF4LHC 14",
"PDF4LHC_NP_15" : "Title: "PDF4LHC 15",
"PDF4LHC_NP_16" : "Title: "PDF4LHC 16",
"PDF4LHC_NP_17" : "Title: "PDF4LHC 17",
"PDF4LHC_NP_18" : "Title: "PDF4LHC 18",
"PDF4LHC_NP_19" : "Title: "PDF4LHC 19",
"PDF4LHC_NP_20" : "Title: "PDF4LHC 20",
"PDF4LHC_NP_21" : "Title: "PDF4LHC 21",
"PDF4LHC_NP_22" : "Title: "PDF4LHC 22",
"PDF4LHC_NP_23" : "Title: "PDF4LHC 23",
"PDF4LHC_NP_24" : "Title: "PDF4LHC 24",
"PDF4LHC_NP_25" : "Title: "PDF4LHC 25",
"PDF4LHC_NP_26" : "Title: "PDF4LHC 26",
"PDF4LHC_NP_27" : "Title: "PDF4LHC 27",
"PDF4LHC_NP_28" : "Title: "PDF4LHC 28",
"PDF4LHC_NP_29" : "Title: "PDF4LHC 29",
"PDF4LHC_NP_30" : "Title: "PDF4LHC 30",
"FakesOther_norm" : "Title: "Fakes (other) normalisation",
"FakesEl_non_closure" : "Title: "Fakes (electron) non-closure",
"FakesMu_non_closure" : "Title: "Fakes (muon) non-closure",
"WZc_xsec" : "Title: "WZ+cUnc30",
"WZl_xsec" : "Title: "WZ+lUnc30",
"WZb_muR_muF" : "Title: "WZ_muR_muF_B",
"WZc_muR_muF" : "Title: "WZ_muR_muF_C",
"WZl_muR_muF" : "Title: "WZ_muR_muF_L",
"WZb_PDFScale" : "Title: "WZ PDF scale_B",
"WZc_PDFScale" : "Title: "WZ PDF scale_C",
"WZl_PDFScale" : "Title: "WZ PDF scale_L",
"WZb_PDF_as" : "Title: "WZ PDF alpha_s_B",
"WZc_PDF_as" : "Title: "WZ PDF alpha_s_C",
"WZl_PDF_as" : "Title: "WZ PDF alpha_s_L",
"WZb_PDF_CT14" : "Title: "WZ CT14nnlo_B",
"WZc_PDF_CT14" : "Title: "WZ CT14nnlo_C",
"WZl_PDF_CT14" : "Title: "WZ CT14nnlo_L",
"WZb_PDF_MMHT" : "Title: "WZ MMHT2014nnlo68cl_B",
"WZc_PDF_MMHT" : "Title: "WZ MMHT2014nnlo68cl_C",
"WZl_PDF_MMHT" : "Title: "WZ MMHT2014nnlo68cl_L",
"WZl_CKKW" : "Title: "WZ+l CKKW scale",
"WZl_QSF" : "Title: "WZ+l QSF scale",
"WZl_CSSKIN" : "Title: "WZ+l CSSKIN scale",
"WZc_CKKW" : "Title: "WZ+c CKKW scale",
"WZc_QSF" : "Title: "WZ+c QSF scale",
"WZc_CSSKIN" : "Title: "WZ+c CSSKIN scale",
"WZb_CKKW" : "Title: "WZ+b CKKW scale",
"WZb_QSF" : "Title: "WZ+b QSF scale",
"WZb_CSSKIN" : "Title: "WZ+b CSSKIN scale",
"ZZb_xsec" : "Title: "ZZb xsec unc (50%)",
"ZZc_xsec" : "Title: "ZZc xsec unc (30%)",
"ZZl_xsec" : "Title: "ZZl xsec unc (15%)",
"ZZb_muR_muF" : "Title: "ZZ_muR_muF_B",
"ZZc_muR_muF" : "Title: "ZZ_muR_muF_C",
"ZZl_muR_muF" : "Title: "ZZ_muR_muF_L",
"ZZb_PDFScale" : "Title: "ZZ PDF scale_B",
"ZZc_PDFScale" : "Title: "ZZ PDF scale_C",
"ZZl_PDFScale" : "Title: "ZZ PDF scale_L",
"ZZb_PDF_as" : "Title: "ZZ PDF alpha_s_B",
"ZZc_PDF_as" : "Title: "ZZ PDF alpha_s_C",
"ZZl_PDF_as" : "Title: "ZZ PDF alpha_s_L",
"ZZb_PDF_CT14" : "Title: "ZZ CT14nnlo_B",
"ZZc_PDF_CT14" : "Title: "ZZ CT14nnlo_C",
"ZZl_PDF_CT14" : "Title: "ZZ CT14nnlo_L",
"ZZb_PDF_MMHT" : "Title: "ZZ MMHT2014nnlo68cl_B",
"ZZc_PDF_MMHT" : "Title: "ZZ MMHT2014nnlo68cl_C",
"ZZl_PDF_MMHT" : "Title: "ZZ MMHT2014nnlo68cl_L",
"ZZl_CKKW" : "Title: "ZZ+l CKKW scale",
"ZZl_QSF" : "Title: "ZZ+l QSF scale",
"ZZl_CSSKIN" : "Title: "ZZ+l CSSKIN scale",
"ZZc_CKKW" : "Title: "ZZ+c CKKW scale",
"ZZc_QSF" : "Title: "ZZ+c QSF scale",
"ZZc_CSSKIN" : "Title: "ZZ+c CSSKIN scale",
"ZZb_CKKW" : "Title: "ZZ+b CKKW scale",
"ZZb_QSF" : "Title: "ZZ+b QSF scale",
"ZZb_CSSKIN" : "Title: "ZZ+b CSSKIN scale",
"ttW_xsec" : "Title: "t#bar{t}W x-section",
"tZq_xsec" : "Title: "tZq normalisation",
"tZqShowering" : "Title: "tZq showering",
"tZq_A14" : "Title: "tZq A14",
"tZq_muR_muF" : "Title: "tZq_muR_muF",
"tZPDF" : "Title: "tZq PDF",
"tWZ_modelling" : "Title: "tWZ modelling (DR2 vs. DR1)",
"tWZ_muR_muF" : "Title: "tWZ_muR_muF",
"ttH_XS" : "Title: "ttH XS",
"tttt_showering" : "Title: "t#bar{t}t#bar{t} showering",
"xsec_tttt" : "Title: "t#bar{t}t#bar{t} normalisation",
"xsec_other" : "Title: "Other normalisation",
"LUMI" : "Title: "Luminosity",
"JVT_SF" : "Title: "JVT scale factor",
"PRW" : "Title: "Pileup RW",
"Electron_SF_Trigger" : "Title: "Electron SF Trigger",
"Electron_Iso_SF_0" : "Title: "Electron Iso SF 0",
"Electron_Iso_SF_1" : "Title: "Electron Iso SF 1",
"Electron_Iso_SF_2" : "Title: "Electron Iso SF 2",
"Electron_Iso_SF_3" : "Title: "Electron Iso SF 3",
"Electron_Iso_SF_4" : "Title: "Electron Iso SF 4",
"Electron_Iso_SF_5" : "Title: "Electron Iso SF 5",
"Electron_Iso_SF_6" : "Title: "Electron Iso SF 6",
"Electron_Iso_SF_7" : "Title: "Electron Iso SF 7",
"Electron_Iso_SF_8" : "Title: "Electron Iso SF 8",
"Electron_Iso_SF_9" : "Title: "Electron Iso SF 9",
"Electron_Iso_SF_10" : "Title: "Electron Iso SF 10",
"Electron_Iso_SF_11" : "Title: "Electron Iso SF 11",
"Electron_Iso_SF_12" : "Title: "Electron Iso SF 12",
"Electron_Iso_SF_13" : "Title: "Electron Iso SF 13",
"Electron_Iso_SF_14" : "Title: "Electron Iso SF 14",
"Electron_Iso_SF_15" : "Title: "Electron Iso SF 15",
"Electron_Iso_SF_16" : "Title: "Electron Iso SF 16",
"JET_JER_EffectiveNP_1" : "Title: "JER Effective NP 1",
"JET_JER_EffectiveNP_2" : "Title: "JER Effective NP 2",
"JET_JER_EffectiveNP_3" : "Title: "JER Effective NP 3",
"JET_JER_EffectiveNP_4" : "Title: "JER Effective NP 4",
"JET_JER_EffectiveNP_5" : "Title: "JER Effective NP 5",
"JET_JER_EffectiveNP_6" : "Title: "JER Effective NP 6",
"JET_JER_EffectiveNP_7" : "Title: "JER Effective NP 7",
"JET_JER_EffectiveNP_8" : "Title: "JER Effective NP 8",
"JET_JER_EffectiveNP_9" : "Title: "JER Effective NP 9",
"JET_JER_EffectiveNP_10" : "Title: "JER Effective NP 10",
"JET_JER_EffectiveNP_11" : "Title: "JER Effective NP 11",
"BTag_Light_0" : "Title: "Btag Light 0",
"BTag_Light_1" : "Title: "Btag Light 1",
"BTag_Light_2" : "Title: "Btag Light 2",
"BTag_Light_3" : "Title: "Btag Light 3",
"BTag_Light_4" : "Title: "Btag Light 4",
"BTag_Light_5" : "Title: "Btag Light 5",
"BTag_Light_6" : "Title: "Btag Light 6",
"BTag_Light_7" : "Title: "Btag Light 7",
"BTag_Light_8" : "Title: "Btag Light 8",
"BTag_Light_9" : "Title: "Btag Light 9",
"BTag_Light_10" : "Title: "Btag Light 10",
"BTag_Light_11" : "Title: "Btag Light 11",
"BTag_Light_12" : "Title: "Btag Light 12",
"BTag_Light_13" : "Title: "Btag Light 13",
"BTag_Light_14" : "Title: "Btag Light 14",
"BTag_Light_15" : "Title: "Btag Light 15",
"BTag_Light_16" : "Title: "Btag Light 16",
"BTag_Light_17" : "Title: "Btag Light 17",
"BTag_Light_18" : "Title: "Btag Light 18",
"BTag_Light_19" : "Title: "Btag Light 19",
"EG_RESOLUTION_ALL" : "Title: "EG RESOLUTION ALL",
"MET_SoftTrk_ResoPerp" : "Title: "MET SoftTrk ResoPerp",
"JET_JER_EffectiveNP_12restTerm" : "Title: "JER Effective NP 12restTerm",
"Muon_SF_Isol_STAT" : "Title: "Muon SF Isol STAT",
"Muon_SF_Isol_BKG_FRACTION" : "Title: "Muon SF Isol BKG_FRACTION",
"Muon_SF_Isol_LUMI_UNCERT" : "Title: "Muon SF Isol LUMI_UNCERT",
"Muon_SF_Isol_MC_XSEC" : "Title: "Muon SF Isol MC_XSEC",
"Muon_SF_Isol_QCD_TEMPLATE" : "Title: "Muon SF Isol QCD_TEMPLATE",
"Muon_SF_Isol_SUPRESSION_SCALE" : "Title: "Muon SF Isol SUPRESSION_SCALE",
"Muon_SF_Isol_MLLWINDOW" : "Title: "Muon SF Isol MLLWINDOW",
"Muon_SF_Isol_DRMUJ" : "Title: "Muon SF Isol DRMUJ",
"Muon_SF_Isol_PROBEQ" : "Title: "Muon SF Isol PROBEQ",
"Muon_SF_Isol_SHERPA_POWHEG" : "Title: "Muon SF Isol SHERPA_POWHEG",
"MUON_MS" : "Title: "Muon MS",
"JET_EffectiveNP_Mixed1" : "Title: "JET Effective NP mixed 1",
"JET_EffectiveNP_Mixed2" : "Title: "JET Effective NP mixed 2",
"JET_EffectiveNP_Mixed3" : "Title: "JET Effective NP mixed 3",
"JET_EtaIntercalibration_Modelling" : "Title: "JET #eta Intercalibration Modelling",
"JET_EtaIntercalibration_NonClosure_2018data" : "Title: "JET #eta Intercalibration NonClosure_2018data",
"JET_EtaIntercalibration_NonClosure_highE" : "Title: "JET #eta Intercalibration NonClosure_highE",
"JET_EtaIntercalibration_NonClosure_negEta" : "Title: "JET #eta Intercalibration NonClosure_negEta",
"JET_EtaIntercalibration_NonClosure_posEta" : "Title: "JET #eta Intercalibration NonClosure_posEta",
"JET_EtaIntercalibration_TotalStat" : "Title: "JET #eta Intercalibration TotalStat",
"Electron_SF_Reco" : "Title: "Electron SF Reco",
"Muon_SF_TTVA_STAT" : "Title: "Muon SF TTVA STAT",
"Muon_SF_TTVA_BKG_FRACTION" : "Title: "Muon SF TTVA BKG_FRACTION",
"Muon_SF_TTVA_LUMI_UNCERT" : "Title: "Muon SF TTVA LUMI_UNCERT",
"Muon_SF_TTVA_MC_XSEC" : "Title: "Muon SF TTVA MC_XSEC",
"Muon_SF_TTVA_QCD_TEMPLATE" : "Title: "Muon SF TTVA QCD_TEMPLATE",
"Muon_SF_TTVA_SUPRESSION_SCALE" : "Title: "Muon SF TTVA SUPRESSION_SCALE",
"MET_SoftTrk_ResoPara" : "Title: "MET SoftTrk ResoPara",
"EG_SCALE_AF2" : "Title: "EG SCALE AF2",
"MUON_SCALE" : "Title: "Muon Scale",
"JET_Pileup_OffsetMu" : "Title: "JET Pileup OffsetMu",
"JET_Pileup_OffsetNPV" : "Title: "JET Pileup OffsetNPV",
"JET_Pileup_PtTerm" : "Title: "JET Pileup PtTerm",
"JET_Pileup_RhoTopology" : "Title: "JET Pileup RhoTopology",
"BTag_C_0" : "Title: "Btag C 0",
"BTag_C_1" : "Title: "Btag C 1",
"BTag_C_2" : "Title: "Btag C 2",
"BTag_C_3" : "Title: "Btag C 3",
"BTag_C_4" : "Title: "Btag C 4",
"BTag_C_5" : "Title: "Btag C 5",
"BTag_C_6" : "Title: "Btag C 6",
"BTag_C_7" : "Title: "Btag C 7",
"BTag_C_8" : "Title: "Btag C 8",
"BTag_C_9" : "Title: "Btag C 9",
"BTag_C_10" : "Title: "Btag C 10",
"BTag_C_11" : "Title: "Btag C 11",
"BTag_C_12" : "Title: "Btag C 12",
"BTag_C_13" : "Title: "Btag C 13",
"BTag_C_14" : "Title: "Btag C 14",
"BTag_C_15" : "Title: "Btag C 15",
"BTag_C_16" : "Title: "Btag C 16",
"BTag_C_17" : "Title: "Btag C 17",
"BTag_C_18" : "Title: "Btag C 18",
"BTag_C_19" : "Title: "Btag C 19",
"JET_SingleParticle_HighPt" : "Title: "JET SingleParticle HighPt",
"JET_BJES_Response" : "Title: "JET BJES Response",
"JET_Flavor_Composition" : "Title: "JET Flavor Composition",
"JET_Flavor_Response" : "Title: "JET Flavor Response",
"Muon_SF_Trigger_STAT" : "Title: "Muon SF Trigger STAT",
"MET_SoftTrk_Scale" : "Title: "MET SoftTrk Scale",
"MUON_SAGITTA_RESBIAS" : "Title: "Muon Sagitta RESBIAS",
"MUON_SAGITTA_RHO" : "Title: "Muon Sagitta RHO",
"JET_EffectiveNP_Modelling1" : "Title: "JET Effective NP modelling 1",
"JET_EffectiveNP_Modelling2" : "Title: "JET Effective NP modelling 2",
"JET_EffectiveNP_Modelling3" : "Title: "JET Effective NP modelling 3",
"JET_EffectiveNP_Modelling4" : "Title: "JET Effective NP modelling 4",
"Muon_SF_Trigger_SYST" : "Title: "Muon SF Trigger SYST",
"JET_JER_DataVsMC_MC16" : "Title: "JER DataVsMC",
"JET_JER_DataVsMC_AFII" : "Title: "JER DataVsMC (AFII)",
"JET_EffectiveNP_Detector1" : "Title: "JET Effective NP detector 1",
"JET_EffectiveNP_Detector2" : "Title: "JET Effective NP detector 2",
"MUON_ID" : "Title: "Muon ID",
"JET_EffectiveNP_Statistical1" : "Title: "JET Effective NP statistical 1",
"JET_EffectiveNP_Statistical2" : "Title: "JET Effective NP statistical 2",
"JET_EffectiveNP_Statistical3" : "Title: "JET Effective NP statistical 3",
"JET_EffectiveNP_Statistical4" : "Title: "JET Effective NP statistical 4",
"JET_EffectiveNP_Statistical5" : "Title: "JET Effective NP statistical 5",
"JET_EffectiveNP_Statistical6" : "Title: "JET Effective NP statistical 6",
"Muon_SF_ID_STAT" : "Title: "Muon SF ID STAT",
"Muon_SF_ID_STAT_LOWPT" : "Title: "Muon SF ID STAT_LOWPT",
"Muon_SF_ID_BKG_FRACTION" : "Title: "Muon SF ID BKG_FRACTION",
"Muon_SF_ID_FIT_MODEL_LOWPT" : "Title: "Muon SF ID FIT_MODEL_LOWPT",
"Muon_SF_ID_LUMI_UNCERT" : "Title: "Muon SF ID LUMI_UNCERT",
"Muon_SF_ID_MATCHING" : "Title: "Muon SF ID MATCHING",
"Muon_SF_ID_MATCHING_LOWPT" : "Title: "Muon SF ID MATCHING_LOWPT",
"Muon_SF_ID_MC_XSEC" : "Title: "Muon SF ID MC_XSEC",
"Muon_SF_ID_PT_DEPENDENCY" : "Title: "Muon SF ID PT_DEPENDENCY",
"Muon_SF_ID_QCD_TEMPLATE" : "Title: "Muon SF ID QCD_TEMPLATE",
"Muon_SF_ID_SUPRESSION_SCALE" : "Title: "Muon SF ID SUPRESSION_SCALE",
"Muon_SF_ID_SYS" : "Title: "Muon SF ID SYS",
"Muon_SF_ID_TRUTH" : "Title: "Muon SF ID TRUTH",
"Muon_SF_ID_TRUTH_LOWPT" : "Title: "Muon SF ID TRUTH_LOWPT",
"EG_SCALE_ALL" : "Title: "EG SCALE ALL",
"BTag_B_0" : "Title: "Btag B 0",
"BTag_B_1" : "Title: "Btag B 1",
"BTag_B_2" : "Title: "Btag B 2",
"BTag_B_3" : "Title: "Btag B 3",
"BTag_B_4" : "Title: "Btag B 4",
"BTag_B_5" : "Title: "Btag B 5",
"BTag_B_6" : "Title: "Btag B 6",
"BTag_B_7" : "Title: "Btag B 7",
"BTag_B_8" : "Title: "Btag B 8",
"BTag_B_9" : "Title: "Btag B 9",
"BTag_B_10" : "Title: "Btag B 10",
"BTag_B_11" : "Title: "Btag B 11",
"BTag_B_12" : "Title: "Btag B 12",
"BTag_B_13" : "Title: "Btag B 13",
"BTag_B_14" : "Title: "Btag B 14",
"BTag_B_15" : "Title: "Btag B 15",
"BTag_B_16" : "Title: "Btag B 16",
"BTag_B_17" : "Title: "Btag B 17",
"BTag_B_18" : "Title: "Btag B 18",
"BTag_B_19" : "Title: "Btag B 19",
"BTag_B_20" : "Title: "Btag B 20",
"BTag_B_21" : "Title: "Btag B 21",
"BTag_B_22" : "Title: "Btag B 22",
"BTag_B_23" : "Title: "Btag B 23",
"BTag_B_24" : "Title: "Btag B 24",
"BTag_B_25" : "Title: "Btag B 25",
"BTag_B_26" : "Title: "Btag B 26",
"BTag_B_27" : "Title: "Btag B 27",
"BTag_B_28" : "Title: "Btag B 28",
"BTag_B_29" : "Title: "Btag B 29",
"BTag_B_30" : "Title: "Btag B 30",
"BTag_B_31" : "Title: "Btag B 31",
"BTag_B_32" : "Title: "Btag B 32",
"BTag_B_33" : "Title: "Btag B 33",
"BTag_B_34" : "Title: "Btag B 34",
"BTag_B_35" : "Title: "Btag B 35",
"BTag_B_36" : "Title: "Btag B 36",
"BTag_B_37" : "Title: "Btag B 37",
"BTag_B_38" : "Title: "Btag B 38",
"BTag_B_39" : "Title: "Btag B 39",
"BTag_B_40" : "Title: "Btag B 40",
"BTag_B_41" : "Title: "Btag B 41",
"BTag_B_42" : "Title: "Btag B 42",
"BTag_B_43" : "Title: "Btag B 43",
"BTag_B_44" : "Title: "Btag B 44",
"Electron_ID_SF_0" : "Title: "Electron ID SF 0",
"Electron_ID_SF_1" : "Title: "Electron ID SF 1",
"Electron_ID_SF_2" : "Title: "Electron ID SF 2",
"Electron_ID_SF_3" : "Title: "Electron ID SF 3",
"Electron_ID_SF_4" : "Title: "Electron ID SF 4",
"Electron_ID_SF_5" : "Title: "Electron ID SF 5",
"Electron_ID_SF_6" : "Title: "Electron ID SF 6",
"Electron_ID_SF_7" : "Title: "Electron ID SF 7",
"Electron_ID_SF_8" : "Title: "Electron ID SF 8",
"Electron_ID_SF_9" : "Title: "Electron ID SF 9",
"Electron_ID_SF_10" : "Title: "Electron ID SF 10",
"Electron_ID_SF_11" : "Title: "Electron ID SF 11",
"Electron_ID_SF_12" : "Title: "Electron ID SF 12",
"Electron_ID_SF_13" : "Title: "Electron ID SF 13",
"Electron_ID_SF_14" : "Title: "Electron ID SF 14",
"Electron_ID_SF_15" : "Title: "Electron ID SF 15",
"Electron_ID_SF_16" : "Title: "Electron ID SF 16",
"Electron_ID_SF_17" : "Title: "Electron ID SF 17",
"Electron_ID_SF_18" : "Title: "Electron ID SF 18",
"Electron_ID_SF_19" : "Title: "Electron ID SF 19",
"Electron_ID_SF_20" : "Title: "Electron ID SF 20",
"Electron_ID_SF_21" : "Title: "Electron ID SF 21",
"Electron_ID_SF_22" : "Title: "Electron ID SF 22",
"Electron_ID_SF_23" : "Title: "Electron ID SF 23",
"Electron_ID_SF_24" : "Title: "Electron ID SF 24",
"Electron_ID_SF_25" : "Title: "Electron ID SF 25",
"Electron_ID_SF_26" : "Title: "Electron ID SF 26",
"Electron_ID_SF_27" : "Title: "Electron ID SF 27",
"Electron_ID_SF_28" : "Title: "Electron ID SF 28",
"Electron_ID_SF_29" : "Title: "Electron ID SF 29",
"Electron_ID_SF_30" : "Title: "Electron ID SF 30",
"Electron_ID_SF_31" : "Title: "Electron ID SF 31",
"JET_PunchThrough_MC16" : "Title: "JET PunchThrough MC16",
"JET_PunchThrough_AFII" : "Title: "JET PunchThrough AFII",
"JET_RelativeNonClosure_AFII" : "Title: "JET RelativeNonClosure AFII",
