---------------------------------------------------------------------------

| Variable |	 GOF (tty_prod) | GOF(tty_total) |

---------------------------------------------------------------------------

| log_pt |	 0.58 |

| log_eta |	 0.63 |

