%!PS-Adobe-2.0 EPSF-2.0
%%BoundingBox:  0 0 567 650
%%Title: ./compare_NP_dilep_fits_drphb_drlj_dr/NormFactors_comp.eps: c
%%Creator: ROOT Version 6.28/04
%%CreationDate: Mon Oct 16 07:58:06 2023
%%DocumentNeededResources: ProcSet (FontSetInit)
%%EndComments
%%BeginProlog
80 dict begin
/s {stroke} def /l {lineto} def /m {moveto} def /t {translate} def
/r {rotate} def /rl {roll}  def /R {repeat} def
/d {rlineto} def /rm {rmoveto} def /gr {grestore} def /f {eofill} def
/c {setrgbcolor} def /black {0 setgray} def /sd {setdash} def
/cl {closepath} def /sf {scalefont setfont} def /lw {setlinewidth} def
/box {m dup 0 exch d exch 0 d 0 exch neg d cl} def
/NC{systemdict begin initclip end}def/C{NC box clip newpath}def
/bl {box s} def /bf {gsave box gsave f grestore 1 lw [] 0 sd s grestore} def /Y { 0 exch d} def /X { 0 d} def 
/K {{pop pop 0 moveto} exch kshow} bind def
/ita {/ang 15 def gsave [1 0 ang dup sin exch cos div 1 0 0] concat} def 
/mp {newpath /y exch def /x exch def} def
/side {[w .77 mul w .23 mul] .385 w mul sd w 0 l currentpoint t -144 r} def
/mr {mp x y w2 0 360 arc} def /m24 {mr s} def /m20 {mr f} def
/mb {mp x y w2 add m w2 neg 0 d 0 w neg d w 0 d 0 w d cl} def
/mt {mp x y w2 add m w2 neg w neg d w 0 d cl} def
/w4 {w 4 div} def
/w6 {w 6 div} def
/w8 {w 8 div} def
/m21 {mb f} def /m25 {mb s} def /m22 {mt f} def /m26{mt s} def
/m23 {mp x y w2 sub m w2 w d w neg 0 d cl f} def
/m27 {mp x y w2 add m w3 neg w2 neg d w3 w2 neg d w3 w2 d cl s} def
/m28 {mp x w2 sub y w2 sub w3 add m w3 0 d  0 w3 neg d w3 0 d 0 w3 d w3 0 d  0 w3 d w3 neg 0 d 0 w3 d w3 neg 0 d 0 w3 neg d w3 neg 0 d cl s } def
/m29 {mp gsave x w2 sub y w2 add w3 sub m currentpoint t 4 {side} repeat cl fill gr} def
/m30 {mp gsave x w2 sub y w2 add w3 sub m currentpoint t 4 {side} repeat cl s gr} def
/m31 {mp x y w2 sub m 0 w d x w2 sub y m w 0 d x w2 .707 mul sub y w2 .707 mul add m w 1.44 div w 1.44 div neg d x w2 .707 mul sub y w2 .707 mul sub m w 1.44 div w 1.44 div d s} def
/m32 {mp x y w2 sub m w2 w d w neg 0 d cl s} def
/m33 {mp x y w2 add m w3 neg w2 neg d w3 w2 neg d w3 w2 d cl f} def
/m34 {mp x w2 sub y w2 sub w3 add m w3 0 d  0 w3 neg d w3 0 d 0 w3 d w3 0 d  0 w3 d w3 neg 0 d 0 w3 d w3 neg 0 d 0 w3 neg d w3 neg 0 d cl f } def
/m35 {mp x y w2 add m w2 neg w2 neg d w2 w2 neg d w2 w2 d w2 neg w2 d x y w2 sub m 0 w d x w2 sub y m w 0 d s} def
/m36 {mb x w2 sub y w2 add m w w neg d x w2 sub y w2 sub m w w d s} def
/m37 {mp x y m w4 neg w2 d w4 neg w2 neg d w2 0 d  w4 neg w2 neg d w2 0 d w4 neg w2 d w2 0 d w4 neg w2 d w4 neg w2 neg d cl s} def
/m38 {mp x w4 sub y w2 add m w4 neg w4 neg d 0 w2 neg d w4 w4 neg d w2 0 d w4 w4 d 0 w2 d w4 neg w4 d w2 neg 0 d x y w2 sub m 0 w d x w2 sub y m w 0 d cl s} def
/m39 {mp x y m w4 neg w2 d w4 neg w2 neg d w2 0 d  w4 neg w2 neg d w2 0 d w4 neg w2 d w2 0 d w4 neg w2 d w4 neg w2 neg d cl f} def
/m40 {mp x y m w4 w2 d w4 w4 neg d w2 neg w4 neg d w2 w4 neg d w4 neg w4 neg d w4 neg w2 d w4 neg w2 neg d w4 neg w4 d w2 w4 d w2 neg w4 d w4 w4 d w4 w2 neg d cl s} def
/m41 {mp x y m w4 w2 d w4 w4 neg d w2 neg w4 neg d w2 w4 neg d w4 neg w4 neg d w4 neg w2 d w4 neg w2 neg d w4 neg w4 d w2 w4 d w2 neg w4 d w4 w4 d w4 w2 neg d cl f} def
/m42 {mp x y w2 add m w8 neg w2 -3 4 div mul d w2 -3 4 div mul w8 neg d w2 3 4 div mul w8 neg d w8 w2 -3 4 div mul d w8 w2 3 4 div mul d w2 3 4 div mul w8 d w2 -3 4 div mul w8 d w8 neg w2 3 4 div mul d cl s} def
/m43 {mp x y w2 add m w8 neg w2 -3 4 div mul d w2 -3 4 div mul w8 neg d w2 3 4 div mul w8 neg d w8 w2 -3 4 div mul d w8 w2 3 4 div mul d w2 3 4 div mul w8 d w2 -3 4 div mul w8 d w8 neg w2 3 4 div mul d cl f} def
/m44 {mp x y m w6 neg w2 d w2 2 3 div mul 0 d w6 neg w2 neg d w2 w6 d 0 w2 -2 3 div mul d w2 neg w6 d w6 w2 neg d w2 -2 3 div mul 0 d w6 w2 d w2 neg w6 neg d 0 w2 2 3 div mul d w2 w6 neg d cl s} def
/m45 {mp x y m w6 neg w2 d w2 2 3 div mul 0 d w6 neg w2 neg d w2 w6 d 0 w2 -2 3 div mul d w2 neg w6 d w6 w2 neg d w2 -2 3 div mul 0 d w6 w2 d w2 neg w6 neg d 0 w2 2 3 div mul d w2 w6 neg d cl f} def
/m46 {mp x y w4 add m w4 neg w4 d w4 neg w4 neg d  w4 w4 neg d w4 neg w4 neg d w4 w4 neg d w4 w4 d w4 w4 neg d w4 w4 d w4 neg w4 d w4 w4 d w4 neg w4 d w4 neg w4 neg d cl s} def
/m47 {mp x y w4 add m w4 neg w4 d w4 neg w4 neg d w4 w4 neg d w4 neg w4 neg d  w4 w4 neg d w4 w4 d w4 w4 neg d w4 w4 d w4 neg w4 d w4 w4 d w4 neg w4 d w4 neg w4 neg d cl f} def
/m48 {mp x y w4 add m w4 neg w4 d w4 neg w4 neg d w4 w4 neg d  w4 neg w4 neg d w4 w4 neg d w4 w4 d w4 w4 neg d w4 w4 d w4 neg w4 d w4 w4 d w4 neg w4 d w4 neg w4 neg d  w4 w4 neg d w4 neg w4 neg d w4 neg w4 d w4 w4 d cl f} def
/m49 {mp x w2 sub w3 add y w2 sub w3 add m  0 w3 neg d w3 0 d 0 w3 d w3 0 d 0 w3 d w3 neg 0 d 0 w3 d w3 neg 0 d 0 w3 neg d w3 neg 0 d 0 w3 neg d w3 0 d 0 w3 d w3 0 d 0 w3 neg d w3 neg 0 d cl f } def
/m2 {mp x y w2 sub m 0 w d x w2 sub y m w 0 d s} def
/m5 {mp x w2 .707 mul sub y w2 .707 mul sub m w 1.44 div w 1.44 div d x w2 .707 mul sub y w2 .707 mul add m w 1.44 div w 1.44 div neg d s} def
%%IncludeResource: ProcSet (FontSetInit)
%%IncludeResource: font Times-Roman
%%IncludeResource: font Times-Italic
%%IncludeResource: font Times-Bold
%%IncludeResource: font Times-BoldItalic
%%IncludeResource: font Helvetica
%%IncludeResource: font Helvetica-Oblique
%%IncludeResource: font Helvetica-Bold
%%IncludeResource: font Helvetica-BoldOblique
%%IncludeResource: font Courier
%%IncludeResource: font Courier-Oblique
%%IncludeResource: font Courier-Bold
%%IncludeResource: font Courier-BoldOblique
%%IncludeResource: font Symbol
%%IncludeResource: font ZapfDingbats
/reEncode {exch findfont dup length dict begin {1 index /FID eq  {pop pop} {def} ifelse } forall /Encoding exch def currentdict end dup /FontName get exch definefont pop } def [/Times-Bold /Times-Italic /Times-BoldItalic /Helvetica /Helvetica-Oblique
 /Helvetica-Bold /Helvetica-BoldOblique /Courier /Courier-Oblique /Courier-Bold /Courier-BoldOblique /Times-Roman /AvantGarde-Book /AvantGarde-BookOblique /AvantGarde-Demi /AvantGarde-DemiOblique /Bookman-Demi /Bookman-DemiItalic /Bookman-Light
 /Bookman-LightItalic /Helvetica-Narrow /Helvetica-Narrow-Bold /Helvetica-Narrow-BoldOblique /Helvetica-Narrow-Oblique /NewCenturySchlbk-Roman /NewCenturySchlbk-Bold /NewCenturySchlbk-BoldItalic /NewCenturySchlbk-Italic /Palatino-Bold
 /Palatino-BoldItalic /Palatino-Italic /Palatino-Roman ] {ISOLatin1Encoding reEncode } forall
%%EndProlog
%%BeginSetup
%%EndSetup
newpath  gsave  .25 .25 scale  gsave  0 0 t black[  ] 0 sd 3 lw 1 1 1 c 2268 2598 0 0 bf black 1 1 1 c 1882 2349 340 111 bf black 1882 2349 340 111 bl 1 1 1 c 1882 2349 340 111 bf black 1882 2349 340 111 bl 1 1 1 c black 3 lw 340 111 m 1882 X s 511
 175 m -64 Y s 597 143 m -32 Y s 682 143 m -32 Y s 768 143 m -32 Y s 853 175 m -64 Y s 939 143 m -32 Y s 1025 143 m -32 Y s 1110 143 m -32 Y s 1196 175 m -64 Y s 1281 143 m -32 Y s 1367 143 m -32 Y s 1452 143 m -32 Y s 1538 175 m -64 Y s 1623 143 m
 -32 Y s 1709 143 m -32 Y s 1795 143 m -32 Y s 1880 175 m -64 Y s 1966 143 m -32 Y s 2051 143 m -32 Y s 2137 143 m -32 Y s 2222 175 m -64 Y s 511 175 m -64 Y s 426 143 m -32 Y s 340 143 m -32 Y s
 gsave  2268 2598 0 0 C 495.707 56.9778 t 0 r /Helvetica findfont 51.28 sf 0 0 m (0) show NC gr 
 gsave  2268 2598 0 0 C 837.574 56.9778 t 0 r /Helvetica findfont 51.28 sf 0 0 m (2) show NC gr 
 gsave  2268 2598 0 0 C 1179.44 56.9778 t 0 r /Helvetica findfont 51.28 sf 0 0 m (4) show NC gr 
 gsave  2268 2598 0 0 C 1521.31 56.9778 t 0 r /Helvetica findfont 51.28 sf 0 0 m (6) show NC gr 
 gsave  2268 2598 0 0 C 1863.17 56.9778 t 0 r /Helvetica findfont 51.28 sf 0 0 m (8) show NC gr 
 gsave  2268 2598 0 0 C 2193.65 56.9778 t 0 r /Helvetica findfont 51.28 sf 0 0 m (10) show NC gr  340 2460 m 1882 X s 511 2395 m 65 Y s 597 2428 m 32 Y s 682 2428 m 32 Y s 768 2428 m 32 Y s 853 2395 m 65 Y s 939 2428 m 32 Y s 1025 2428 m 32 Y s 1110
 2428 m 32 Y s 1196 2395 m 65 Y s 1281 2428 m 32 Y s 1367 2428 m 32 Y s 1452 2428 m 32 Y s 1538 2395 m 65 Y s 1623 2428 m 32 Y s 1709 2428 m 32 Y s 1795 2428 m 32 Y s 1880 2395 m 65 Y s 1966 2428 m 32 Y s 2051 2428 m 32 Y s 2137 2428 m 32 Y s 2222
 2395 m 65 Y s 511 2395 m 65 Y s 426 2428 m 32 Y s 340 2428 m 32 Y s 340 111 m 2349 Y s 0.8 0.8 0.8 c 682 111 m 2349 Y s black 715 2405 m -5 X s 710 2405 m cl s 738 2405 m 5 X s 743 2405 m cl s 706 2267 m -3 X s 703 2267 m cl s 729 2267 m 4 X s 733
 2267 m cl s 703 2128 m -4 X s 699 2128 m cl s 726 2128 m 4 X s 730 2128 m cl s 687 1990 m -3 X s 684 1990 m cl s 710 1990 m 4 X s 714 1990 m cl s 703 1852 m -4 X s 699 1852 m cl s 726 1852 m 5 X s 731 1852 m cl s 689 1714 m -3 X s 686 1714 m cl s
 712 1714 m 5 X s 717 1714 m cl s 709 1575 m -8 X s 701 1575 m cl s 732 1575 m 10 X s 742 1575 m cl s 1 1 1 c black /w 27 def /w2 {w 2 div} def /w3 {w 3 div} def 726 2405 717 2267 714 2128 699 1990 715 1852 701 1714 721 1575 7 { m20} R 1 0 0 c 682
 1410 m -3 X s 679 1410 m cl s 705 1410 m 5 X s 710 1410 m cl s 698 1271 m -4 X s 694 1271 m cl s 721 1271 m 4 X s 725 1271 m cl s 711 1133 m -5 X s 706 1133 m cl s 734 1133 m 6 X s 740 1133 m cl s 704 995 m -6 X s 698 995 m cl s 727 995 m 7 X s 734
 995 m cl s 715 857 m -13 X s 702 857 m cl s 738 857 m 14 X s 752 857 m cl s 1 1 1 c 1 0 0 c 694 1410 709 1271 723 1133 715 995 726 857 5 { m24} R 0 0 1 c 715 691 m -11 X s 704 691 m cl s 726 691 m 12 X s 738 691 m cl s 710 553 m -10 X s 700 553 m cl
 s 722 553 m 11 X s 733 553 m cl s 713 415 m -11 X s 702 415 m cl s 725 415 m 13 X s 738 415 m cl s 721 276 m -15 X s 706 276 m cl s 733 276 m 16 X s 749 276 m cl s 728 138 m -28 X s 700 138 m cl s 739 138 m 31 X s 770 138 m cl s 1 1 1 c 0 0 1 c 720
 691 716 553 719 415 727 276 734 138 5 { m22} R black
 gsave  2268 2598 0 0 C 56.9778 2358.88 t 0 r /Helvetica findfont 45.5822 sf 0 0 m (tty_drphl Unfolded Truth Bin 1) show NC gr 
 gsave  2268 2598 0 0 C 56.9778 2219.29 t 0 r /Helvetica findfont 45.5822 sf 0 0 m (tty_drphl Unfolded Truth Bin 2) show NC gr 
 gsave  2268 2598 0 0 C 56.9778 2082.54 t 0 r /Helvetica findfont 45.5822 sf 0 0 m (tty_drphl Unfolded Truth Bin 3) show NC gr 
 gsave  2268 2598 0 0 C 56.9778 1942.94 t 0 r /Helvetica findfont 45.5822 sf 0 0 m (tty_drphl Unfolded Truth Bin 4) show NC gr 
 gsave  2268 2598 0 0 C 56.9778 1806.2 t 0 r /Helvetica findfont 45.5822 sf 0 0 m (tty_drphl Unfolded Truth Bin 5) show NC gr 
 gsave  2268 2598 0 0 C 56.9778 1666.6 t 0 r /Helvetica findfont 45.5822 sf 0 0 m (tty_drphl Unfolded Truth Bin 6) show NC gr 
 gsave  2268 2598 0 0 C 56.9778 1529.85 t 0 r /Helvetica findfont 45.5822 sf 0 0 m (tty_drphl Unfolded Truth Bin 7) show NC gr 
 gsave  2268 2598 0 0 C 56.9778 1390.26 t 0 r /Helvetica findfont 45.5822 sf 0 0 m (tty_drphb Unfolded Truth Bin 1) show NC gr 
 gsave  2268 2598 0 0 C 56.9778 1253.51 t 0 r /Helvetica findfont 45.5822 sf 0 0 m (tty_drphb Unfolded Truth Bin 2) show NC gr 
 gsave  2268 2598 0 0 C 56.9778 1113.92 t 0 r /Helvetica findfont 45.5822 sf 0 0 m (tty_drphb Unfolded Truth Bin 3) show NC gr 
 gsave  2268 2598 0 0 C 56.9778 974.32 t 0 r /Helvetica findfont 45.5822 sf 0 0 m (tty_drphb Unfolded Truth Bin 4) show NC gr 
 gsave  2268 2598 0 0 C 56.9778 837.574 t 0 r /Helvetica findfont 45.5822 sf 0 0 m (tty_drphb Unfolded Truth Bin 5) show NC gr 
 gsave  2268 2598 0 0 C 56.9778 697.978 t 0 r /Helvetica findfont 45.5822 sf 0 0 m (tty_drlj Unfolded Truth Bin 1) show NC gr 
 gsave  2268 2598 0 0 C 56.9778 561.231 t 0 r /Helvetica findfont 45.5822 sf 0 0 m (tty_drlj Unfolded Truth Bin 2) show NC gr 
 gsave  2268 2598 0 0 C 56.9778 421.636 t 0 r /Helvetica findfont 45.5822 sf 0 0 m (tty_drlj Unfolded Truth Bin 3) show NC gr 
 gsave  2268 2598 0 0 C 56.9778 284.889 t 0 r /Helvetica findfont 45.5822 sf 0 0 m (tty_drlj Unfolded Truth Bin 4) show NC gr 
 gsave  2268 2598 0 0 C 56.9778 145.293 t 0 r /Helvetica findfont 45.5822 sf 0 0 m (tty_drlj Unfolded Truth Bin 5) show NC gr 
 gsave  2268 2598 0 0 C 1273.45 2344.64 t 0 r /Helvetica findfont 28.4889 sf 0 0 m (\2550.09) show NC gr 
 gsave  2268 2598 0 0 C 1273.45 2384.52 t 0 r /Helvetica findfont 28.4889 sf 0 0 m (+0.10) show NC gr 
 gsave  2268 2598 0 0 C 1185.14 2358.88 t 0 r /Helvetica findfont 45.5822 sf 0 0 m (1.26) show NC gr 
 gsave  2268 2598 0 0 C 1658.05 2344.64 t 0 r /Helvetica findfont 28.4889 sf 0 0 m (\2550.00) show NC gr 
 gsave  2268 2598 0 0 C 1658.05 2384.52 t 0 r /Helvetica findfont 28.4889 sf 0 0 m (+0.00) show NC gr 
 gsave  2268 2598 0 0 C 1529.85 2358.88 t 0 r /Helvetica findfont 45.5822 sf 0 0 m (\25510.00) show NC gr 
 gsave  2268 2598 0 0 C 2002.77 2344.64 t 0 r /Helvetica findfont 28.4889 sf 0 0 m (\2550.00) show NC gr 
 gsave  2268 2598 0 0 C 2002.77 2384.52 t 0 r /Helvetica findfont 28.4889 sf 0 0 m (+0.00) show NC gr 
 gsave  2268 2598 0 0 C 1874.57 2358.88 t 0 r /Helvetica findfont 45.5822 sf 0 0 m (\25510.00) show NC gr 
 gsave  2268 2598 0 0 C 1273.45 2205.04 t 0 r /Helvetica findfont 28.4889 sf 0 0 m (\2550.09) show NC gr 
 gsave  2268 2598 0 0 C 1273.45 2244.93 t 0 r /Helvetica findfont 28.4889 sf 0 0 m (+0.09) show NC gr 
 gsave  2268 2598 0 0 C 1185.14 2219.29 t 0 r /Helvetica findfont 45.5822 sf 0 0 m (1.20) show NC gr 
 gsave  2268 2598 0 0 C 1658.05 2205.04 t 0 r /Helvetica findfont 28.4889 sf 0 0 m (\2550.00) show NC gr 
 gsave  2268 2598 0 0 C 1658.05 2244.93 t 0 r /Helvetica findfont 28.4889 sf 0 0 m (+0.00) show NC gr 
 gsave  2268 2598 0 0 C 1529.85 2219.29 t 0 r /Helvetica findfont 45.5822 sf 0 0 m (\25510.00) show NC gr 
 gsave  2268 2598 0 0 C 2002.77 2205.04 t 0 r /Helvetica findfont 28.4889 sf 0 0 m (\2550.00) show NC gr 
 gsave  2268 2598 0 0 C 2002.77 2244.93 t 0 r /Helvetica findfont 28.4889 sf 0 0 m (+0.00) show NC gr 
 gsave  2268 2598 0 0 C 1874.57 2219.29 t 0 r /Helvetica findfont 45.5822 sf 0 0 m (\25510.00) show NC gr 
 gsave  2268 2598 0 0 C 1273.45 2068.29 t 0 r /Helvetica findfont 28.4889 sf 0 0 m (\2550.09) show NC gr 
 gsave  2268 2598 0 0 C 1273.45 2108.18 t 0 r /Helvetica findfont 28.4889 sf 0 0 m (+0.09) show NC gr 
 gsave  2268 2598 0 0 C 1185.14 2082.54 t 0 r /Helvetica findfont 45.5822 sf 0 0 m (1.19) show NC gr 
 gsave  2268 2598 0 0 C 1658.05 2068.29 t 0 r /Helvetica findfont 28.4889 sf 0 0 m (\2550.00) show NC gr 
 gsave  2268 2598 0 0 C 1658.05 2108.18 t 0 r /Helvetica findfont 28.4889 sf 0 0 m (+0.00) show NC gr 
 gsave  2268 2598 0 0 C 1529.85 2082.54 t 0 r /Helvetica findfont 45.5822 sf 0 0 m (\25510.00) show NC gr 
 gsave  2268 2598 0 0 C 2002.77 2068.29 t 0 r /Helvetica findfont 28.4889 sf 0 0 m (\2550.00) show NC gr 
 gsave  2268 2598 0 0 C 2002.77 2108.18 t 0 r /Helvetica findfont 28.4889 sf 0 0 m (+0.00) show NC gr 
 gsave  2268 2598 0 0 C 1874.57 2082.54 t 0 r /Helvetica findfont 45.5822 sf 0 0 m (\25510.00) show NC gr 
 gsave  2268 2598 0 0 C 1273.45 1928.7 t 0 r /Helvetica findfont 28.4889 sf 0 0 m (\2550.08) show NC gr 
 gsave  2268 2598 0 0 C 1273.45 1968.58 t 0 r /Helvetica findfont 28.4889 sf 0 0 m (+0.09) show NC gr 
 gsave  2268 2598 0 0 C 1185.14 1942.94 t 0 r /Helvetica findfont 45.5822 sf 0 0 m (1.10) show NC gr 
 gsave  2268 2598 0 0 C 1658.05 1928.7 t 0 r /Helvetica findfont 28.4889 sf 0 0 m (\2550.00) show NC gr 
 gsave  2268 2598 0 0 C 1658.05 1968.58 t 0 r /Helvetica findfont 28.4889 sf 0 0 m (+0.00) show NC gr 
 gsave  2268 2598 0 0 C 1529.85 1942.94 t 0 r /Helvetica findfont 45.5822 sf 0 0 m (\25510.00) show NC gr 
 gsave  2268 2598 0 0 C 2002.77 1928.7 t 0 r /Helvetica findfont 28.4889 sf 0 0 m (\2550.00) show NC gr 
 gsave  2268 2598 0 0 C 2002.77 1968.58 t 0 r /Helvetica findfont 28.4889 sf 0 0 m (+0.00) show NC gr 
 gsave  2268 2598 0 0 C 1874.57 1942.94 t 0 r /Helvetica findfont 45.5822 sf 0 0 m (\25510.00) show NC gr 
 gsave  2268 2598 0 0 C 1273.45 1791.95 t 0 r /Helvetica findfont 28.4889 sf 0 0 m (\2550.09) show NC gr 
 gsave  2268 2598 0 0 C 1273.45 1831.84 t 0 r /Helvetica findfont 28.4889 sf 0 0 m (+0.10) show NC gr 
 gsave  2268 2598 0 0 C 1185.14 1806.2 t 0 r /Helvetica findfont 45.5822 sf 0 0 m (1.19) show NC gr 
 gsave  2268 2598 0 0 C 1658.05 1791.95 t 0 r /Helvetica findfont 28.4889 sf 0 0 m (\2550.00) show NC gr 
 gsave  2268 2598 0 0 C 1658.05 1831.84 t 0 r /Helvetica findfont 28.4889 sf 0 0 m (+0.00) show NC gr 
 gsave  2268 2598 0 0 C 1529.85 1806.2 t 0 r /Helvetica findfont 45.5822 sf 0 0 m (\25510.00) show NC gr 
 gsave  2268 2598 0 0 C 2002.77 1791.95 t 0 r /Helvetica findfont 28.4889 sf 0 0 m (\2550.00) show NC gr 
 gsave  2268 2598 0 0 C 2002.77 1831.84 t 0 r /Helvetica findfont 28.4889 sf 0 0 m (+0.00) show NC gr 
 gsave  2268 2598 0 0 C 1874.57 1806.2 t 0 r /Helvetica findfont 45.5822 sf 0 0 m (\25510.00) show NC gr 
 gsave  2268 2598 0 0 C 1264.91 1655.21 t 0 r /Helvetica findfont 28.4889 sf 0 0 m (\2550.09) show NC gr 
 gsave  2268 2598 0 0 C 1264.91 1692.24 t 0 r /Helvetica findfont 28.4889 sf 0 0 m (+0.09) show NC gr 
 gsave  2268 2598 0 0 C 1185.14 1666.6 t 0 r /Helvetica findfont 45.5822 sf 0 0 m (1.11) show NC gr 
 gsave  2268 2598 0 0 C 1658.05 1652.36 t 0 r /Helvetica findfont 28.4889 sf 0 0 m (\2550.00) show NC gr 
 gsave  2268 2598 0 0 C 1658.05 1692.24 t 0 r /Helvetica findfont 28.4889 sf 0 0 m (+0.00) show NC gr 
 gsave  2268 2598 0 0 C 1529.85 1666.6 t 0 r /Helvetica findfont 45.5822 sf 0 0 m (\25510.00) show NC gr 
 gsave  2268 2598 0 0 C 2002.77 1652.36 t 0 r /Helvetica findfont 28.4889 sf 0 0 m (\2550.00) show NC gr 
 gsave  2268 2598 0 0 C 2002.77 1692.24 t 0 r /Helvetica findfont 28.4889 sf 0 0 m (+0.00) show NC gr 
 gsave  2268 2598 0 0 C 1874.57 1666.6 t 0 r /Helvetica findfont 45.5822 sf 0 0 m (\25510.00) show NC gr 
 gsave  2268 2598 0 0 C 1273.45 1518.46 t 0 r /Helvetica findfont 28.4889 sf 0 0 m (\2550.11) show NC gr 
 gsave  2268 2598 0 0 C 1273.45 1555.49 t 0 r /Helvetica findfont 28.4889 sf 0 0 m (+0.12) show NC gr 
 gsave  2268 2598 0 0 C 1185.14 1529.85 t 0 r /Helvetica findfont 45.5822 sf 0 0 m (1.22) show NC gr 
 gsave  2268 2598 0 0 C 1658.05 1515.61 t 0 r /Helvetica findfont 28.4889 sf 0 0 m (\2550.00) show NC gr 
 gsave  2268 2598 0 0 C 1658.05 1555.49 t 0 r /Helvetica findfont 28.4889 sf 0 0 m (+0.00) show NC gr 
 gsave  2268 2598 0 0 C 1529.85 1529.85 t 0 r /Helvetica findfont 45.5822 sf 0 0 m (\25510.00) show NC gr 
 gsave  2268 2598 0 0 C 2002.77 1515.61 t 0 r /Helvetica findfont 28.4889 sf 0 0 m (\2550.00) show NC gr 
 gsave  2268 2598 0 0 C 2002.77 1555.49 t 0 r /Helvetica findfont 28.4889 sf 0 0 m (+0.00) show NC gr 
 gsave  2268 2598 0 0 C 1874.57 1529.85 t 0 r /Helvetica findfont 45.5822 sf 0 0 m (\25510.00) show NC gr 
 gsave  2268 2598 0 0 C 1313.34 1376.01 t 0 r /Helvetica findfont 28.4889 sf 0 0 m (\2550.00) show NC gr 
 gsave  2268 2598 0 0 C 1313.34 1415.9 t 0 r /Helvetica findfont 28.4889 sf 0 0 m (+0.00) show NC gr 
 gsave  2268 2598 0 0 C 1185.14 1390.26 t 0 r /Helvetica findfont 45.5822 sf 0 0 m (\25510.00) show NC gr 
 gsave  2268 2598 0 0 C 1618.17 1376.01 t 0 r /Helvetica findfont 28.4889 sf 0 0 m (\2550.09) show NC gr 
 gsave  2268 2598 0 0 C 1618.17 1415.9 t 0 r /Helvetica findfont 28.4889 sf 0 0 m (+0.09) show NC gr 
 gsave  2268 2598 0 0 C 1529.85 1390.26 t 0 r /Helvetica findfont 45.5822 sf 0 0 m (1.07) show NC gr 
 gsave  2268 2598 0 0 C 2002.77 1376.01 t 0 r /Helvetica findfont 28.4889 sf 0 0 m (\2550.00) show NC gr 
 gsave  2268 2598 0 0 C 2002.77 1415.9 t 0 r /Helvetica findfont 28.4889 sf 0 0 m (+0.00) show NC gr 
 gsave  2268 2598 0 0 C 1874.57 1390.26 t 0 r /Helvetica findfont 45.5822 sf 0 0 m (\25510.00) show NC gr 
 gsave  2268 2598 0 0 C 1313.34 1239.27 t 0 r /Helvetica findfont 28.4889 sf 0 0 m (\2550.00) show NC gr 
 gsave  2268 2598 0 0 C 1313.34 1279.15 t 0 r /Helvetica findfont 28.4889 sf 0 0 m (+0.00) show NC gr 
 gsave  2268 2598 0 0 C 1185.14 1253.51 t 0 r /Helvetica findfont 45.5822 sf 0 0 m (\25510.00) show NC gr 
 gsave  2268 2598 0 0 C 1618.17 1239.27 t 0 r /Helvetica findfont 28.4889 sf 0 0 m (\2550.09) show NC gr 
 gsave  2268 2598 0 0 C 1618.17 1279.15 t 0 r /Helvetica findfont 28.4889 sf 0 0 m (+0.09) show NC gr 
 gsave  2268 2598 0 0 C 1529.85 1253.51 t 0 r /Helvetica findfont 45.5822 sf 0 0 m (1.16) show NC gr 
 gsave  2268 2598 0 0 C 2002.77 1239.27 t 0 r /Helvetica findfont 28.4889 sf 0 0 m (\2550.00) show NC gr 
 gsave  2268 2598 0 0 C 2002.77 1279.15 t 0 r /Helvetica findfont 28.4889 sf 0 0 m (+0.00) show NC gr 
 gsave  2268 2598 0 0 C 1874.57 1253.51 t 0 r /Helvetica findfont 45.5822 sf 0 0 m (\25510.00) show NC gr 
 gsave  2268 2598 0 0 C 1313.34 1099.67 t 0 r /Helvetica findfont 28.4889 sf 0 0 m (\2550.00) show NC gr 
 gsave  2268 2598 0 0 C 1313.34 1139.56 t 0 r /Helvetica findfont 28.4889 sf 0 0 m (+0.00) show NC gr 
 gsave  2268 2598 0 0 C 1185.14 1113.92 t 0 r /Helvetica findfont 45.5822 sf 0 0 m (\25510.00) show NC gr 
 gsave  2268 2598 0 0 C 1618.17 1099.67 t 0 r /Helvetica findfont 28.4889 sf 0 0 m (\2550.09) show NC gr 
 gsave  2268 2598 0 0 C 1618.17 1139.56 t 0 r /Helvetica findfont 28.4889 sf 0 0 m (+0.10) show NC gr 
 gsave  2268 2598 0 0 C 1529.85 1113.92 t 0 r /Helvetica findfont 45.5822 sf 0 0 m (1.23) show NC gr 
 gsave  2268 2598 0 0 C 2002.77 1099.67 t 0 r /Helvetica findfont 28.4889 sf 0 0 m (\2550.00) show NC gr 
 gsave  2268 2598 0 0 C 2002.77 1139.56 t 0 r /Helvetica findfont 28.4889 sf 0 0 m (+0.00) show NC gr 
 gsave  2268 2598 0 0 C 1874.57 1113.92 t 0 r /Helvetica findfont 45.5822 sf 0 0 m (\25510.00) show NC gr 
 gsave  2268 2598 0 0 C 1313.34 960.076 t 0 r /Helvetica findfont 28.4889 sf 0 0 m (\2550.00) show NC gr 
 gsave  2268 2598 0 0 C 1313.34 999.96 t 0 r /Helvetica findfont 28.4889 sf 0 0 m (+0.00) show NC gr 
 gsave  2268 2598 0 0 C 1185.14 974.32 t 0 r /Helvetica findfont 45.5822 sf 0 0 m (\25510.00) show NC gr 
 gsave  2268 2598 0 0 C 1618.17 960.076 t 0 r /Helvetica findfont 28.4889 sf 0 0 m (\2550.10) show NC gr 
 gsave  2268 2598 0 0 C 1618.17 999.96 t 0 r /Helvetica findfont 28.4889 sf 0 0 m (+0.11) show NC gr 
 gsave  2268 2598 0 0 C 1529.85 974.32 t 0 r /Helvetica findfont 45.5822 sf 0 0 m (1.19) show NC gr 
 gsave  2268 2598 0 0 C 2002.77 960.076 t 0 r /Helvetica findfont 28.4889 sf 0 0 m (\2550.00) show NC gr 
 gsave  2268 2598 0 0 C 2002.77 999.96 t 0 r /Helvetica findfont 28.4889 sf 0 0 m (+0.00) show NC gr 
 gsave  2268 2598 0 0 C 1874.57 974.32 t 0 r /Helvetica findfont 45.5822 sf 0 0 m (\25510.00) show NC gr 
 gsave  2268 2598 0 0 C 1313.34 823.329 t 0 r /Helvetica findfont 28.4889 sf 0 0 m (\2550.00) show NC gr 
 gsave  2268 2598 0 0 C 1313.34 863.214 t 0 r /Helvetica findfont 28.4889 sf 0 0 m (+0.00) show NC gr 
 gsave  2268 2598 0 0 C 1185.14 837.574 t 0 r /Helvetica findfont 45.5822 sf 0 0 m (\25510.00) show NC gr 
 gsave  2268 2598 0 0 C 1618.17 823.329 t 0 r /Helvetica findfont 28.4889 sf 0 0 m (\2550.14) show NC gr 
 gsave  2268 2598 0 0 C 1618.17 863.214 t 0 r /Helvetica findfont 28.4889 sf 0 0 m (+0.15) show NC gr 
 gsave  2268 2598 0 0 C 1529.85 837.574 t 0 r /Helvetica findfont 45.5822 sf 0 0 m (1.26) show NC gr 
 gsave  2268 2598 0 0 C 2002.77 823.329 t 0 r /Helvetica findfont 28.4889 sf 0 0 m (\2550.00) show NC gr 
 gsave  2268 2598 0 0 C 2002.77 863.214 t 0 r /Helvetica findfont 28.4889 sf 0 0 m (+0.00) show NC gr 
 gsave  2268 2598 0 0 C 1874.57 837.574 t 0 r /Helvetica findfont 45.5822 sf 0 0 m (\25510.00) show NC gr 
 gsave  2268 2598 0 0 C 1313.34 683.734 t 0 r /Helvetica findfont 28.4889 sf 0 0 m (\2550.00) show NC gr 
 gsave  2268 2598 0 0 C 1313.34 723.618 t 0 r /Helvetica findfont 28.4889 sf 0 0 m (+0.00) show NC gr 
 gsave  2268 2598 0 0 C 1185.14 697.978 t 0 r /Helvetica findfont 45.5822 sf 0 0 m (\25510.00) show NC gr 
 gsave  2268 2598 0 0 C 1658.05 683.734 t 0 r /Helvetica findfont 28.4889 sf 0 0 m (\2550.00) show NC gr 
 gsave  2268 2598 0 0 C 1658.05 723.618 t 0 r /Helvetica findfont 28.4889 sf 0 0 m (+0.00) show NC gr 
 gsave  2268 2598 0 0 C 1529.85 697.978 t 0 r /Helvetica findfont 45.5822 sf 0 0 m (\25510.00) show NC gr 
 gsave  2268 2598 0 0 C 1962.89 686.583 t 0 r /Helvetica findfont 28.4889 sf 0 0 m (\2550.09) show NC gr 
 gsave  2268 2598 0 0 C 1962.89 723.618 t 0 r /Helvetica findfont 28.4889 sf 0 0 m (+0.10) show NC gr 
 gsave  2268 2598 0 0 C 1874.57 697.978 t 0 r /Helvetica findfont 45.5822 sf 0 0 m (1.22) show NC gr 
 gsave  2268 2598 0 0 C 1313.34 546.987 t 0 r /Helvetica findfont 28.4889 sf 0 0 m (\2550.00) show NC gr 
 gsave  2268 2598 0 0 C 1313.34 586.871 t 0 r /Helvetica findfont 28.4889 sf 0 0 m (+0.00) show NC gr 
 gsave  2268 2598 0 0 C 1185.14 561.231 t 0 r /Helvetica findfont 45.5822 sf 0 0 m (\25510.00) show NC gr 
 gsave  2268 2598 0 0 C 1658.05 546.987 t 0 r /Helvetica findfont 28.4889 sf 0 0 m (\2550.00) show NC gr 
 gsave  2268 2598 0 0 C 1658.05 586.871 t 0 r /Helvetica findfont 28.4889 sf 0 0 m (+0.00) show NC gr 
 gsave  2268 2598 0 0 C 1529.85 561.231 t 0 r /Helvetica findfont 45.5822 sf 0 0 m (\25510.00) show NC gr 
 gsave  2268 2598 0 0 C 1962.89 546.987 t 0 r /Helvetica findfont 28.4889 sf 0 0 m (\2550.09) show NC gr 
 gsave  2268 2598 0 0 C 1962.89 586.871 t 0 r /Helvetica findfont 28.4889 sf 0 0 m (+0.10) show NC gr 
 gsave  2268 2598 0 0 C 1874.57 561.231 t 0 r /Helvetica findfont 45.5822 sf 0 0 m (1.20) show NC gr 
 gsave  2268 2598 0 0 C 1313.34 407.391 t 0 r /Helvetica findfont 28.4889 sf 0 0 m (\2550.00) show NC gr 
 gsave  2268 2598 0 0 C 1313.34 447.276 t 0 r /Helvetica findfont 28.4889 sf 0 0 m (+0.00) show NC gr 
 gsave  2268 2598 0 0 C 1185.14 421.636 t 0 r /Helvetica findfont 45.5822 sf 0 0 m (\25510.00) show NC gr 
 gsave  2268 2598 0 0 C 1658.05 407.391 t 0 r /Helvetica findfont 28.4889 sf 0 0 m (\2550.00) show NC gr 
 gsave  2268 2598 0 0 C 1658.05 447.276 t 0 r /Helvetica findfont 28.4889 sf 0 0 m (+0.00) show NC gr 
 gsave  2268 2598 0 0 C 1529.85 421.636 t 0 r /Helvetica findfont 45.5822 sf 0 0 m (\25510.00) show NC gr 
 gsave  2268 2598 0 0 C 1954.34 410.24 t 0 r /Helvetica findfont 28.4889 sf 0 0 m (\2550.10) show NC gr 
 gsave  2268 2598 0 0 C 1954.34 447.276 t 0 r /Helvetica findfont 28.4889 sf 0 0 m (+0.11) show NC gr 
 gsave  2268 2598 0 0 C 1874.57 421.636 t 0 r /Helvetica findfont 45.5822 sf 0 0 m (1.21) show NC gr 
 gsave  2268 2598 0 0 C 1313.34 270.645 t 0 r /Helvetica findfont 28.4889 sf 0 0 m (\2550.00) show NC gr 
 gsave  2268 2598 0 0 C 1313.34 310.529 t 0 r /Helvetica findfont 28.4889 sf 0 0 m (+0.00) show NC gr 
 gsave  2268 2598 0 0 C 1185.14 284.889 t 0 r /Helvetica findfont 45.5822 sf 0 0 m (\25510.00) show NC gr 
 gsave  2268 2598 0 0 C 1658.05 270.645 t 0 r /Helvetica findfont 28.4889 sf 0 0 m (\2550.00) show NC gr 
 gsave  2268 2598 0 0 C 1658.05 310.529 t 0 r /Helvetica findfont 28.4889 sf 0 0 m (+0.00) show NC gr 
 gsave  2268 2598 0 0 C 1529.85 284.889 t 0 r /Helvetica findfont 45.5822 sf 0 0 m (\25510.00) show NC gr 
 gsave  2268 2598 0 0 C 1962.89 270.645 t 0 r /Helvetica findfont 28.4889 sf 0 0 m (\2550.12) show NC gr 
 gsave  2268 2598 0 0 C 1962.89 310.529 t 0 r /Helvetica findfont 28.4889 sf 0 0 m (+0.13) show NC gr 
 gsave  2268 2598 0 0 C 1874.57 284.889 t 0 r /Helvetica findfont 45.5822 sf 0 0 m (1.26) show NC gr 
 gsave  2268 2598 0 0 C 1313.34 131.049 t 0 r /Helvetica findfont 28.4889 sf 0 0 m (\2550.00) show NC gr 
 gsave  2268 2598 0 0 C 1313.34 170.933 t 0 r /Helvetica findfont 28.4889 sf 0 0 m (+0.00) show NC gr 
 gsave  2268 2598 0 0 C 1185.14 145.293 t 0 r /Helvetica findfont 45.5822 sf 0 0 m (\25510.00) show NC gr 
 gsave  2268 2598 0 0 C 1658.05 131.049 t 0 r /Helvetica findfont 28.4889 sf 0 0 m (\2550.00) show NC gr 
 gsave  2268 2598 0 0 C 1658.05 170.933 t 0 r /Helvetica findfont 28.4889 sf 0 0 m (+0.00) show NC gr 
 gsave  2268 2598 0 0 C 1529.85 145.293 t 0 r /Helvetica findfont 45.5822 sf 0 0 m (\25510.00) show NC gr 
 gsave  2268 2598 0 0 C 1962.89 131.049 t 0 r /Helvetica findfont 28.4889 sf 0 0 m (\2550.20) show NC gr 
 gsave  2268 2598 0 0 C 1962.89 170.933 t 0 r /Helvetica findfont 28.4889 sf 0 0 m (+0.21) show NC gr 
 gsave  2268 2598 0 0 C 1874.57 145.293 t 0 r /Helvetica findfont 45.5822 sf 0 0 m (1.30) show NC gr 
 gsave  2268 2598 0 0 C 1319.04 2526.97 t 0 r /Helvetica findfont 56.9778 sf 0 0 m (,l\)) show NC gr 
 gsave  2268 2598 0 0 C 1290.55 2526.97 t 0 r /Symbol findfont 56.9778 sf 0 0 m (g) show NC gr 
 gsave  2268 2598 0 0 C 1273.45 2526.97 t 0 r /Helvetica findfont 56.9778 sf 0 0 m (\() show NC gr 
 gsave  2268 2598 0 0 C 1213.63 2509.87 t 0 r /Helvetica findfont 37.0356 sf 0 0 m (min) show NC gr 
 gsave  2268 2598 0 0 C 1156.65 2526.97 t 0 r /Helvetica findfont 56.9778 sf 0 0 m ( R) show NC gr 
 gsave  2268 2598 0 0 C 1119.61 2526.97 t 0 r /Symbol findfont 56.9778 sf 0 0 m (D) show NC gr  1035 2539 m 71 X s 1071 2539 m20
 gsave  2268 2598 0 0 C 1717.88 2526.97 t 0 r /Helvetica findfont 56.9778 sf 0 0 m (,b\)) show NC gr 
 gsave  2268 2598 0 0 C 1689.39 2526.97 t 0 r /Symbol findfont 56.9778 sf 0 0 m (g) show NC gr 
 gsave  2268 2598 0 0 C 1672.3 2526.97 t 0 r /Helvetica findfont 56.9778 sf 0 0 m (\() show NC gr 
 gsave  2268 2598 0 0 C 1612.47 2509.87 t 0 r /Helvetica findfont 37.0356 sf 0 0 m (min) show NC gr 
 gsave  2268 2598 0 0 C 1555.49 2526.97 t 0 r /Helvetica findfont 56.9778 sf 0 0 m ( R) show NC gr 
 gsave  2268 2598 0 0 C 1518.46 2526.97 t 0 r /Symbol findfont 56.9778 sf 0 0 m (D) show NC gr  1 0 0 c 1435 2539 m 70 X s 1470 2539 m24 black
 gsave  2268 2598 0 0 C 2091.09 2526.97 t 0 r /Helvetica findfont 56.9778 sf 0 0 m (\(l,j\)) show NC gr 
 gsave  2268 2598 0 0 C 2031.26 2509.87 t 0 r /Helvetica findfont 37.0356 sf 0 0 m (min) show NC gr 
 gsave  2268 2598 0 0 C 1974.28 2526.97 t 0 r /Helvetica findfont 56.9778 sf 0 0 m ( R) show NC gr 
 gsave  2268 2598 0 0 C 1937.25 2526.97 t 0 r /Symbol findfont 56.9778 sf 0 0 m (D) show NC gr  0 0 1 c 1853 2539 m 71 X s 1888 2539 m22 black
 gsave  2268 2598 0 0 C 339.018 2507.02 t 0 r /Helvetica-BoldOblique findfont 56.9778 sf 0 0 m (ATLAS) show NC gr 
 gsave  2268 2598 0 0 C 566.929 2507.02 t 0 r /Helvetica findfont 56.9778 sf 0 0 m (Internal) show NC gr  340 111 m 1882 X s 511 175 m -64 Y s 597 143 m -32 Y s 682 143 m -32 Y s 768 143 m -32 Y s 853 175 m -64 Y s 939 143 m -32 Y s 1025 143 m -32 Y
 s 1110 143 m -32 Y s 1196 175 m -64 Y s 1281 143 m -32 Y s 1367 143 m -32 Y s 1452 143 m -32 Y s 1538 175 m -64 Y s 1623 143 m -32 Y s 1709 143 m -32 Y s 1795 143 m -32 Y s 1880 175 m -64 Y s 1966 143 m -32 Y s 2051 143 m -32 Y s 2137 143 m -32 Y s
 2222 175 m -64 Y s 511 175 m -64 Y s 426 143 m -32 Y s 340 143 m -32 Y s 340 2460 m 1882 X s 511 2395 m 65 Y s 597 2428 m 32 Y s 682 2428 m 32 Y s 768 2428 m 32 Y s 853 2395 m 65 Y s 939 2428 m 32 Y s 1025 2428 m 32 Y s 1110 2428 m 32 Y s 1196 2395
 m 65 Y s 1281 2428 m 32 Y s 1367 2428 m 32 Y s 1452 2428 m 32 Y s 1538 2395 m 65 Y s 1623 2428 m 32 Y s 1709 2428 m 32 Y s 1795 2428 m 32 Y s 1880 2395 m 65 Y s 1966 2428 m 32 Y s 2051 2428 m 32 Y s 2137 2428 m 32 Y s 2222 2395 m 65 Y s 511 2395 m
 65 Y s 426 2428 m 32 Y s 340 2428 m 32 Y s 340 111 m 2349 Y s
 gr  gr showpage
end
%%EOF
