event yield
------------------------------------------
efake_ttgamma_NLO_prod
45.7

efake_ttgamma_LO_dec
34.8

efake_Wgamma
0.0

efake_Zgamma
24.6

efake_Wjets
0.5

efake_Zjets
487.6

efake_Wtgamma
3.7

efake_Wt_inclusive
189.7

efake_ttbar
6026.5

efake_singletop
1.6

efake_ttV
40.3

efake_diboson
27.5

