---------------------------------------------------------------------------

Variable |	 abs P8 |	 abs H7 |	 norm P8 |	 norm H7 | 

---------------------------------------------------------------------------

log_pt |	 0.435493 |	 0.536589

log_eta |	 0.066947 |	 0.094307

