---------------------------------------------------------------------------

Variable |	 abs P8 |	 abs H7 |	 norm P8 |	 norm H7 | 

---------------------------------------------------------------------------

log_pt |	 12.3/10 |	 11.1/10 |	 20.1/9 |	 16.8/9 | 

log_eta |	 11.5/8 |	 11.0/8 |	 8.1/7 |	 8.3/7 | 

log_dr |	 10.2/7 |	 9.6/7 |	 8.5/6 |	 8.5/6 | 

log_drphb |	 12.4/5 |	 12.0/5 |	 7.5/4 |	 8.7/4 | 

log_drlj |	 6.1/5 |	 6.4/5 |	 1.5/4 |	 2.5/4 | 

log_ptj1 |	 12.0/5 |	 10.5/5 |	 8.1/4 |	 9.7/4 | 

