---------------------------------------------------------------------------

Variable |	 abs P8 |	 abs H7 |	 norm P8 |	 norm H7 | 

---------------------------------------------------------------------------

log_pt |	 12.3/10 |	 11.1/10 |	 30.7/9 |	 23.9/9 | 

log_ptj1 |	 12.0/5 |	 10.5/5 |	 8.1/4 |	 9.7/4 | 

