---------------------------------------------------------------------------

Variable |	 abs P8 |	 abs H7 |	 norm P8 |	 norm H7 | 

---------------------------------------------------------------------------

log_pt |	 12.9/10 |	 8.7/10 |	 18.1/9 |	 11.7/9 | 

log_eta |	 13.3/8 |	 13.3/8 |	 12.2/7 |	 13.1/7 | 

log_dr |	 15.2/7 |	 14.2/7 |	 18.5/6 |	 17.3/6 | 

log_drphb |	 8.6/5 |	 5.9/5 |	 9.1/4 |	 5.8/4 | 

log_drlj |	 4.7/5 |	 2.9/5 |	 0.8/4 |	 0.9/4 | 

log_ptj1 |	 25.2/5 |	 43.5/5 |	 27.8/4 |	 44.8/4 | 

