---------------------------------------------------------------------------

Variable |	 abs P8 |	 abs H7 |	 norm P8 |	 norm H7 | 

---------------------------------------------------------------------------

log_pt |	 0.26 |	 0.35 |	 0.0 |	 0.0 | 

log_eta |	 0.18 |	 0.2 |	 0.33 |	 0.31 | 

log_dr |	 0.18 |	 0.22 |	 0.2 |	 0.21 | 

log_drphb |	 0.03 |	 0.04 |	 0.11 |	 0.07 | 

log_drlj |	 0.3 |	 0.27 |	 0.83 |	 0.64 | 

log_ptj1 |	 0.04 |	 0.06 |	 0.09 |	 0.05 | 

