%!PS-Adobe-2.0 EPSF-2.0
%%BoundingBox:  0 0 484 737
%%Title: ./compare_NP_dilep_fits_pt_ptj1_eta/NormFactors_comp.eps: c
%%Creator: ROOT Version 6.28/04
%%CreationDate: Mon Oct 16 07:57:50 2023
%%DocumentNeededResources: ProcSet (FontSetInit)
%%EndComments
%%BeginProlog
80 dict begin
/s {stroke} def /l {lineto} def /m {moveto} def /t {translate} def
/r {rotate} def /rl {roll}  def /R {repeat} def
/d {rlineto} def /rm {rmoveto} def /gr {grestore} def /f {eofill} def
/c {setrgbcolor} def /black {0 setgray} def /sd {setdash} def
/cl {closepath} def /sf {scalefont setfont} def /lw {setlinewidth} def
/box {m dup 0 exch d exch 0 d 0 exch neg d cl} def
/NC{systemdict begin initclip end}def/C{NC box clip newpath}def
/bl {box s} def /bf {gsave box gsave f grestore 1 lw [] 0 sd s grestore} def /Y { 0 exch d} def /X { 0 d} def 
/K {{pop pop 0 moveto} exch kshow} bind def
/ita {/ang 15 def gsave [1 0 ang dup sin exch cos div 1 0 0] concat} def 
/mp {newpath /y exch def /x exch def} def
/side {[w .77 mul w .23 mul] .385 w mul sd w 0 l currentpoint t -144 r} def
/mr {mp x y w2 0 360 arc} def /m24 {mr s} def /m20 {mr f} def
/mb {mp x y w2 add m w2 neg 0 d 0 w neg d w 0 d 0 w d cl} def
/mt {mp x y w2 add m w2 neg w neg d w 0 d cl} def
/w4 {w 4 div} def
/w6 {w 6 div} def
/w8 {w 8 div} def
/m21 {mb f} def /m25 {mb s} def /m22 {mt f} def /m26{mt s} def
/m23 {mp x y w2 sub m w2 w d w neg 0 d cl f} def
/m27 {mp x y w2 add m w3 neg w2 neg d w3 w2 neg d w3 w2 d cl s} def
/m28 {mp x w2 sub y w2 sub w3 add m w3 0 d  0 w3 neg d w3 0 d 0 w3 d w3 0 d  0 w3 d w3 neg 0 d 0 w3 d w3 neg 0 d 0 w3 neg d w3 neg 0 d cl s } def
/m29 {mp gsave x w2 sub y w2 add w3 sub m currentpoint t 4 {side} repeat cl fill gr} def
/m30 {mp gsave x w2 sub y w2 add w3 sub m currentpoint t 4 {side} repeat cl s gr} def
/m31 {mp x y w2 sub m 0 w d x w2 sub y m w 0 d x w2 .707 mul sub y w2 .707 mul add m w 1.44 div w 1.44 div neg d x w2 .707 mul sub y w2 .707 mul sub m w 1.44 div w 1.44 div d s} def
/m32 {mp x y w2 sub m w2 w d w neg 0 d cl s} def
/m33 {mp x y w2 add m w3 neg w2 neg d w3 w2 neg d w3 w2 d cl f} def
/m34 {mp x w2 sub y w2 sub w3 add m w3 0 d  0 w3 neg d w3 0 d 0 w3 d w3 0 d  0 w3 d w3 neg 0 d 0 w3 d w3 neg 0 d 0 w3 neg d w3 neg 0 d cl f } def
/m35 {mp x y w2 add m w2 neg w2 neg d w2 w2 neg d w2 w2 d w2 neg w2 d x y w2 sub m 0 w d x w2 sub y m w 0 d s} def
/m36 {mb x w2 sub y w2 add m w w neg d x w2 sub y w2 sub m w w d s} def
/m37 {mp x y m w4 neg w2 d w4 neg w2 neg d w2 0 d  w4 neg w2 neg d w2 0 d w4 neg w2 d w2 0 d w4 neg w2 d w4 neg w2 neg d cl s} def
/m38 {mp x w4 sub y w2 add m w4 neg w4 neg d 0 w2 neg d w4 w4 neg d w2 0 d w4 w4 d 0 w2 d w4 neg w4 d w2 neg 0 d x y w2 sub m 0 w d x w2 sub y m w 0 d cl s} def
/m39 {mp x y m w4 neg w2 d w4 neg w2 neg d w2 0 d  w4 neg w2 neg d w2 0 d w4 neg w2 d w2 0 d w4 neg w2 d w4 neg w2 neg d cl f} def
/m40 {mp x y m w4 w2 d w4 w4 neg d w2 neg w4 neg d w2 w4 neg d w4 neg w4 neg d w4 neg w2 d w4 neg w2 neg d w4 neg w4 d w2 w4 d w2 neg w4 d w4 w4 d w4 w2 neg d cl s} def
/m41 {mp x y m w4 w2 d w4 w4 neg d w2 neg w4 neg d w2 w4 neg d w4 neg w4 neg d w4 neg w2 d w4 neg w2 neg d w4 neg w4 d w2 w4 d w2 neg w4 d w4 w4 d w4 w2 neg d cl f} def
/m42 {mp x y w2 add m w8 neg w2 -3 4 div mul d w2 -3 4 div mul w8 neg d w2 3 4 div mul w8 neg d w8 w2 -3 4 div mul d w8 w2 3 4 div mul d w2 3 4 div mul w8 d w2 -3 4 div mul w8 d w8 neg w2 3 4 div mul d cl s} def
/m43 {mp x y w2 add m w8 neg w2 -3 4 div mul d w2 -3 4 div mul w8 neg d w2 3 4 div mul w8 neg d w8 w2 -3 4 div mul d w8 w2 3 4 div mul d w2 3 4 div mul w8 d w2 -3 4 div mul w8 d w8 neg w2 3 4 div mul d cl f} def
/m44 {mp x y m w6 neg w2 d w2 2 3 div mul 0 d w6 neg w2 neg d w2 w6 d 0 w2 -2 3 div mul d w2 neg w6 d w6 w2 neg d w2 -2 3 div mul 0 d w6 w2 d w2 neg w6 neg d 0 w2 2 3 div mul d w2 w6 neg d cl s} def
/m45 {mp x y m w6 neg w2 d w2 2 3 div mul 0 d w6 neg w2 neg d w2 w6 d 0 w2 -2 3 div mul d w2 neg w6 d w6 w2 neg d w2 -2 3 div mul 0 d w6 w2 d w2 neg w6 neg d 0 w2 2 3 div mul d w2 w6 neg d cl f} def
/m46 {mp x y w4 add m w4 neg w4 d w4 neg w4 neg d  w4 w4 neg d w4 neg w4 neg d w4 w4 neg d w4 w4 d w4 w4 neg d w4 w4 d w4 neg w4 d w4 w4 d w4 neg w4 d w4 neg w4 neg d cl s} def
/m47 {mp x y w4 add m w4 neg w4 d w4 neg w4 neg d w4 w4 neg d w4 neg w4 neg d  w4 w4 neg d w4 w4 d w4 w4 neg d w4 w4 d w4 neg w4 d w4 w4 d w4 neg w4 d w4 neg w4 neg d cl f} def
/m48 {mp x y w4 add m w4 neg w4 d w4 neg w4 neg d w4 w4 neg d  w4 neg w4 neg d w4 w4 neg d w4 w4 d w4 w4 neg d w4 w4 d w4 neg w4 d w4 w4 d w4 neg w4 d w4 neg w4 neg d  w4 w4 neg d w4 neg w4 neg d w4 neg w4 d w4 w4 d cl f} def
/m49 {mp x w2 sub w3 add y w2 sub w3 add m  0 w3 neg d w3 0 d 0 w3 d w3 0 d 0 w3 d w3 neg 0 d 0 w3 d w3 neg 0 d 0 w3 neg d w3 neg 0 d 0 w3 neg d w3 0 d 0 w3 d w3 0 d 0 w3 neg d w3 neg 0 d cl f } def
/m2 {mp x y w2 sub m 0 w d x w2 sub y m w 0 d s} def
/m5 {mp x w2 .707 mul sub y w2 .707 mul sub m w 1.44 div w 1.44 div d x w2 .707 mul sub y w2 .707 mul add m w 1.44 div w 1.44 div neg d s} def
%%IncludeResource: ProcSet (FontSetInit)
%%IncludeResource: font Times-Roman
%%IncludeResource: font Times-Italic
%%IncludeResource: font Times-Bold
%%IncludeResource: font Times-BoldItalic
%%IncludeResource: font Helvetica
%%IncludeResource: font Helvetica-Oblique
%%IncludeResource: font Helvetica-Bold
%%IncludeResource: font Helvetica-BoldOblique
%%IncludeResource: font Courier
%%IncludeResource: font Courier-Oblique
%%IncludeResource: font Courier-Bold
%%IncludeResource: font Courier-BoldOblique
%%IncludeResource: font Symbol
%%IncludeResource: font ZapfDingbats
/reEncode {exch findfont dup length dict begin {1 index /FID eq  {pop pop} {def} ifelse } forall /Encoding exch def currentdict end dup /FontName get exch definefont pop } def [/Times-Bold /Times-Italic /Times-BoldItalic /Helvetica /Helvetica-Oblique
 /Helvetica-Bold /Helvetica-BoldOblique /Courier /Courier-Oblique /Courier-Bold /Courier-BoldOblique /Times-Roman /AvantGarde-Book /AvantGarde-BookOblique /AvantGarde-Demi /AvantGarde-DemiOblique /Bookman-Demi /Bookman-DemiItalic /Bookman-Light
 /Bookman-LightItalic /Helvetica-Narrow /Helvetica-Narrow-Bold /Helvetica-Narrow-BoldOblique /Helvetica-Narrow-Oblique /NewCenturySchlbk-Roman /NewCenturySchlbk-Bold /NewCenturySchlbk-BoldItalic /NewCenturySchlbk-Italic /Palatino-Bold
 /Palatino-BoldItalic /Palatino-Italic /Palatino-Roman ] {ISOLatin1Encoding reEncode } forall
%%EndProlog
%%BeginSetup
%%EndSetup
newpath  gsave  .25 .25 scale  gsave  0 0 t black[  ] 0 sd 3 lw 1 1 1 c 1936 2948 0 0 bf black 1 1 1 c 1607 2734 290 95 bf black 1607 2734 290 95 bl 1 1 1 c 1607 2734 290 95 bf black 1607 2734 290 95 bl 1 1 1 c black 3 lw 290 95 m 1607 X s 437 169 m
 -74 Y s 510 132 m -37 Y s 583 132 m -37 Y s 656 132 m -37 Y s 729 169 m -74 Y s 802 132 m -37 Y s 875 132 m -37 Y s 948 132 m -37 Y s 1021 169 m -74 Y s 1094 132 m -37 Y s 1167 132 m -37 Y s 1240 132 m -37 Y s 1313 169 m -74 Y s 1386 132 m -37 Y s
 1459 132 m -37 Y s 1532 132 m -37 Y s 1605 169 m -74 Y s 1678 132 m -37 Y s 1751 132 m -37 Y s 1824 132 m -37 Y s 1897 169 m -74 Y s 437 169 m -74 Y s 363 132 m -37 Y s 290 132 m -37 Y s
 gsave  1936 2948 0 0 C 423.232 43.7826 t 0 r /Helvetica findfont 43.7826 sf 0 0 m (0) show NC gr 
 gsave  1936 2948 0 0 C 715.117 43.7826 t 0 r /Helvetica findfont 43.7826 sf 0 0 m (2) show NC gr 
 gsave  1936 2948 0 0 C 1007 43.7826 t 0 r /Helvetica findfont 43.7826 sf 0 0 m (4) show NC gr 
 gsave  1936 2948 0 0 C 1298.89 43.7826 t 0 r /Helvetica findfont 43.7826 sf 0 0 m (6) show NC gr 
 gsave  1936 2948 0 0 C 1590.77 43.7826 t 0 r /Helvetica findfont 43.7826 sf 0 0 m (8) show NC gr 
 gsave  1936 2948 0 0 C 1872.92 43.7826 t 0 r /Helvetica findfont 43.7826 sf 0 0 m (10) show NC gr  290 2829 m 1607 X s 437 2756 m 73 Y s 510 2792 m 37 Y s 583 2792 m 37 Y s 656 2792 m 37 Y s 729 2756 m 73 Y s 802 2792 m 37 Y s 875 2792 m 37 Y s 948
 2792 m 37 Y s 1021 2756 m 73 Y s 1094 2792 m 37 Y s 1167 2792 m 37 Y s 1240 2792 m 37 Y s 1313 2756 m 73 Y s 1386 2792 m 37 Y s 1459 2792 m 37 Y s 1532 2792 m 37 Y s 1605 2756 m 73 Y s 1678 2792 m 37 Y s 1751 2792 m 37 Y s 1824 2792 m 37 Y s 1897
 2756 m 73 Y s 437 2756 m 73 Y s 363 2792 m 37 Y s 290 2792 m 37 Y s 290 95 m 2734 Y s 0.8 0.8 0.8 c 583 95 m 2734 Y s black 607 2782 m -11 X s 596 2782 m cl s 626 2782 m 14 X s 640 2782 m cl s 609 2663 m -9 X s 600 2663 m cl s 629 2663 m 11 X s 640
 2663 m cl s 611 2544 m -9 X s 602 2544 m cl s 630 2544 m 10 X s 640 2544 m cl s 599 2425 m -6 X s 593 2425 m cl s 618 2425 m 7 X s 625 2425 m cl s 594 2306 m -5 X s 589 2306 m cl s 613 2306 m 6 X s 619 2306 m cl s 588 2187 m -5 X s 583 2187 m cl s
 607 2187 m 6 X s 613 2187 m cl s 601 2068 m -4 X s 597 2068 m cl s 621 2068 m 5 X s 626 2068 m cl s 581 1950 m -3 X s 578 1950 m cl s 600 1950 m 4 X s 604 1950 m cl s 586 1831 m -3 X s 583 1831 m cl s 605 1831 m 3 X s 608 1831 m cl s 568 1712 m -2 X
 s 566 1712 m cl s 588 1712 m 1 X s 589 1712 m cl s 1 1 1 c black /w 23 def /w2 {w 2 div} def /w3 {w 3 div} def 617 2782 619 2663 620 2544 608 2425 604 2306 598 2187 611 2068 591 1950 595 1831 578 1712 10 { m20} R 1 0 0 c 601 1569 m -3 X s 598 1569 m
 cl s 621 1569 m 4 X s 625 1569 m cl s 606 1450 m -4 X s 602 1450 m cl s 626 1450 m 5 X s 631 1450 m cl s 593 1331 m -3 X s 590 1331 m cl s 613 1331 m 4 X s 617 1331 m cl s 597 1212 m -3 X s 594 1212 m cl s 617 1212 m 4 X s 621 1212 m cl s 596 1094 m
 -3 X s 593 1094 m cl s 616 1094 m 4 X s 620 1094 m cl s 589 975 m -3 X s 586 975 m cl s 608 975 m 5 X s 613 975 m cl s 592 856 m -4 X s 588 856 m cl s 612 856 m 5 X s 617 856 m cl s 596 737 m -8 X s 588 737 m cl s 615 737 m 8 X s 623 737 m cl s 1 1
 1 c 1 0 0 c 611 1569 616 1450 603 1331 607 1212 606 1094 599 975 602 856 605 737 8 { m24} R 0 0 1 c 598 594 m -11 X s 587 594 m cl s 608 594 m 12 X s 620 594 m cl s 597 475 m -9 X s 588 475 m cl s 606 475 m 10 X s 616 475 m cl s 590 357 m -8 X s 582
 357 m cl s 600 357 m 9 X s 609 357 m cl s 623 238 m -10 X s 613 238 m cl s 633 238 m 11 X s 644 238 m cl s 627 119 m -32 X s 595 119 m cl s 636 119 m 41 X s 677 119 m cl s 1 1 1 c 0 0 1 c 603 594 601 475 595 357 628 238 631 119 5 { m22} R black
 gsave  1936 2948 0 0 C 48.6474 2741.28 t 0 r /Helvetica findfont 38.9179 sf 0 0 m (tty_pt Unfolded Truth Bin 1) show NC gr 
 gsave  1936 2948 0 0 C 48.6474 2622.09 t 0 r /Helvetica findfont 38.9179 sf 0 0 m (tty_pt Unfolded Truth Bin 2) show NC gr 
 gsave  1936 2948 0 0 C 48.6474 2502.91 t 0 r /Helvetica findfont 38.9179 sf 0 0 m (tty_pt Unfolded Truth Bin 3) show NC gr 
 gsave  1936 2948 0 0 C 48.6474 2383.72 t 0 r /Helvetica findfont 38.9179 sf 0 0 m (tty_pt Unfolded Truth Bin 4) show NC gr 
 gsave  1936 2948 0 0 C 48.6474 2264.54 t 0 r /Helvetica findfont 38.9179 sf 0 0 m (tty_pt Unfolded Truth Bin 5) show NC gr 
 gsave  1936 2948 0 0 C 48.6474 2147.78 t 0 r /Helvetica findfont 38.9179 sf 0 0 m (tty_pt Unfolded Truth Bin 6) show NC gr 
 gsave  1936 2948 0 0 C 48.6474 2028.6 t 0 r /Helvetica findfont 38.9179 sf 0 0 m (tty_pt Unfolded Truth Bin 7) show NC gr 
 gsave  1936 2948 0 0 C 48.6474 1909.41 t 0 r /Helvetica findfont 38.9179 sf 0 0 m (tty_pt Unfolded Truth Bin 8) show NC gr 
 gsave  1936 2948 0 0 C 48.6474 1790.22 t 0 r /Helvetica findfont 38.9179 sf 0 0 m (tty_pt Unfolded Truth Bin 9) show NC gr 
 gsave  1936 2948 0 0 C 48.6474 1671.04 t 0 r /Helvetica findfont 38.9179 sf 0 0 m (tty_pt Unfolded Truth Bin 10) show NC gr 
 gsave  1936 2948 0 0 C 48.6474 1551.85 t 0 r /Helvetica findfont 38.9179 sf 0 0 m (tty_eta Unfolded Truth Bin 1) show NC gr 
 gsave  1936 2948 0 0 C 48.6474 1432.67 t 0 r /Helvetica findfont 38.9179 sf 0 0 m (tty_eta Unfolded Truth Bin 2) show NC gr 
 gsave  1936 2948 0 0 C 48.6474 1315.91 t 0 r /Helvetica findfont 38.9179 sf 0 0 m (tty_eta Unfolded Truth Bin 3) show NC gr 
 gsave  1936 2948 0 0 C 48.6474 1196.73 t 0 r /Helvetica findfont 38.9179 sf 0 0 m (tty_eta Unfolded Truth Bin 4) show NC gr 
 gsave  1936 2948 0 0 C 48.6474 1077.54 t 0 r /Helvetica findfont 38.9179 sf 0 0 m (tty_eta Unfolded Truth Bin 5) show NC gr 
 gsave  1936 2948 0 0 C 48.6474 958.353 t 0 r /Helvetica findfont 38.9179 sf 0 0 m (tty_eta Unfolded Truth Bin 6) show NC gr 
 gsave  1936 2948 0 0 C 48.6474 839.167 t 0 r /Helvetica findfont 38.9179 sf 0 0 m (tty_eta Unfolded Truth Bin 7) show NC gr 
 gsave  1936 2948 0 0 C 48.6474 719.981 t 0 r /Helvetica findfont 38.9179 sf 0 0 m (tty_eta Unfolded Truth Bin 8) show NC gr 
 gsave  1936 2948 0 0 C 48.6474 600.795 t 0 r /Helvetica findfont 38.9179 sf 0 0 m (tty_ptj1 Unfolded Truth Bin 1) show NC gr 
 gsave  1936 2948 0 0 C 48.6474 481.609 t 0 r /Helvetica findfont 38.9179 sf 0 0 m (tty_ptj1 Unfolded Truth Bin 2) show NC gr 
 gsave  1936 2948 0 0 C 48.6474 364.855 t 0 r /Helvetica findfont 38.9179 sf 0 0 m (tty_ptj1 Unfolded Truth Bin 3) show NC gr 
 gsave  1936 2948 0 0 C 48.6474 245.669 t 0 r /Helvetica findfont 38.9179 sf 0 0 m (tty_ptj1 Unfolded Truth Bin 4) show NC gr 
 gsave  1936 2948 0 0 C 48.6474 126.483 t 0 r /Helvetica findfont 38.9179 sf 0 0 m (tty_ptj1 Unfolded Truth Bin 5) show NC gr 
 gsave  1936 2948 0 0 C 1087.27 2729.12 t 0 r /Helvetica findfont 24.3237 sf 0 0 m (\2550.14) show NC gr 
 gsave  1936 2948 0 0 C 1087.27 2763.17 t 0 r /Helvetica findfont 24.3237 sf 0 0 m (+0.16) show NC gr 
 gsave  1936 2948 0 0 C 1011.87 2741.28 t 0 r /Helvetica findfont 38.9179 sf 0 0 m (1.23) show NC gr 
 gsave  1936 2948 0 0 C 1415.64 2729.12 t 0 r /Helvetica findfont 24.3237 sf 0 0 m (\2550.00) show NC gr 
 gsave  1936 2948 0 0 C 1415.64 2763.17 t 0 r /Helvetica findfont 24.3237 sf 0 0 m (+0.00) show NC gr 
 gsave  1936 2948 0 0 C 1306.18 2741.28 t 0 r /Helvetica findfont 38.9179 sf 0 0 m (\25510.00) show NC gr 
 gsave  1936 2948 0 0 C 1709.96 2729.12 t 0 r /Helvetica findfont 24.3237 sf 0 0 m (\2550.00) show NC gr 
 gsave  1936 2948 0 0 C 1709.96 2763.17 t 0 r /Helvetica findfont 24.3237 sf 0 0 m (+0.00) show NC gr 
 gsave  1936 2948 0 0 C 1600.5 2741.28 t 0 r /Helvetica findfont 38.9179 sf 0 0 m (\25510.00) show NC gr 
 gsave  1936 2948 0 0 C 1087.27 2609.93 t 0 r /Helvetica findfont 24.3237 sf 0 0 m (\2550.13) show NC gr 
 gsave  1936 2948 0 0 C 1087.27 2643.99 t 0 r /Helvetica findfont 24.3237 sf 0 0 m (+0.14) show NC gr 
 gsave  1936 2948 0 0 C 1011.87 2622.09 t 0 r /Helvetica findfont 38.9179 sf 0 0 m (1.25) show NC gr 
 gsave  1936 2948 0 0 C 1415.64 2609.93 t 0 r /Helvetica findfont 24.3237 sf 0 0 m (\2550.00) show NC gr 
 gsave  1936 2948 0 0 C 1415.64 2643.99 t 0 r /Helvetica findfont 24.3237 sf 0 0 m (+0.00) show NC gr 
 gsave  1936 2948 0 0 C 1306.18 2622.09 t 0 r /Helvetica findfont 38.9179 sf 0 0 m (\25510.00) show NC gr 
 gsave  1936 2948 0 0 C 1709.96 2609.93 t 0 r /Helvetica findfont 24.3237 sf 0 0 m (\2550.00) show NC gr 
 gsave  1936 2948 0 0 C 1709.96 2643.99 t 0 r /Helvetica findfont 24.3237 sf 0 0 m (+0.00) show NC gr 
 gsave  1936 2948 0 0 C 1600.5 2622.09 t 0 r /Helvetica findfont 38.9179 sf 0 0 m (\25510.00) show NC gr 
 gsave  1936 2948 0 0 C 1087.27 2490.75 t 0 r /Helvetica findfont 24.3237 sf 0 0 m (\2550.12) show NC gr 
 gsave  1936 2948 0 0 C 1087.27 2524.8 t 0 r /Helvetica findfont 24.3237 sf 0 0 m (+0.13) show NC gr 
 gsave  1936 2948 0 0 C 1011.87 2502.91 t 0 r /Helvetica findfont 38.9179 sf 0 0 m (1.26) show NC gr 
 gsave  1936 2948 0 0 C 1415.64 2490.75 t 0 r /Helvetica findfont 24.3237 sf 0 0 m (\2550.00) show NC gr 
 gsave  1936 2948 0 0 C 1415.64 2524.8 t 0 r /Helvetica findfont 24.3237 sf 0 0 m (+0.00) show NC gr 
 gsave  1936 2948 0 0 C 1306.18 2502.91 t 0 r /Helvetica findfont 38.9179 sf 0 0 m (\25510.00) show NC gr 
 gsave  1936 2948 0 0 C 1709.96 2490.75 t 0 r /Helvetica findfont 24.3237 sf 0 0 m (\2550.00) show NC gr 
 gsave  1936 2948 0 0 C 1709.96 2524.8 t 0 r /Helvetica findfont 24.3237 sf 0 0 m (+0.00) show NC gr 
 gsave  1936 2948 0 0 C 1600.5 2502.91 t 0 r /Helvetica findfont 38.9179 sf 0 0 m (\25510.00) show NC gr 
 gsave  1936 2948 0 0 C 1087.27 2371.56 t 0 r /Helvetica findfont 24.3237 sf 0 0 m (\2550.11) show NC gr 
 gsave  1936 2948 0 0 C 1087.27 2405.61 t 0 r /Helvetica findfont 24.3237 sf 0 0 m (+0.12) show NC gr 
 gsave  1936 2948 0 0 C 1011.87 2383.72 t 0 r /Helvetica findfont 38.9179 sf 0 0 m (1.18) show NC gr 
 gsave  1936 2948 0 0 C 1415.64 2371.56 t 0 r /Helvetica findfont 24.3237 sf 0 0 m (\2550.00) show NC gr 
 gsave  1936 2948 0 0 C 1415.64 2405.61 t 0 r /Helvetica findfont 24.3237 sf 0 0 m (+0.00) show NC gr 
 gsave  1936 2948 0 0 C 1306.18 2383.72 t 0 r /Helvetica findfont 38.9179 sf 0 0 m (\25510.00) show NC gr 
 gsave  1936 2948 0 0 C 1709.96 2371.56 t 0 r /Helvetica findfont 24.3237 sf 0 0 m (\2550.00) show NC gr 
 gsave  1936 2948 0 0 C 1709.96 2405.61 t 0 r /Helvetica findfont 24.3237 sf 0 0 m (+0.00) show NC gr 
 gsave  1936 2948 0 0 C 1600.5 2383.72 t 0 r /Helvetica findfont 38.9179 sf 0 0 m (\25510.00) show NC gr 
 gsave  1936 2948 0 0 C 1087.27 2254.81 t 0 r /Helvetica findfont 24.3237 sf 0 0 m (\2550.10) show NC gr 
 gsave  1936 2948 0 0 C 1087.27 2286.43 t 0 r /Helvetica findfont 24.3237 sf 0 0 m (+0.11) show NC gr 
 gsave  1936 2948 0 0 C 1011.87 2264.54 t 0 r /Helvetica findfont 38.9179 sf 0 0 m (1.14) show NC gr 
 gsave  1936 2948 0 0 C 1415.64 2252.37 t 0 r /Helvetica findfont 24.3237 sf 0 0 m (\2550.00) show NC gr 
 gsave  1936 2948 0 0 C 1415.64 2286.43 t 0 r /Helvetica findfont 24.3237 sf 0 0 m (+0.00) show NC gr 
 gsave  1936 2948 0 0 C 1306.18 2264.54 t 0 r /Helvetica findfont 38.9179 sf 0 0 m (\25510.00) show NC gr 
 gsave  1936 2948 0 0 C 1709.96 2252.37 t 0 r /Helvetica findfont 24.3237 sf 0 0 m (\2550.00) show NC gr 
 gsave  1936 2948 0 0 C 1709.96 2286.43 t 0 r /Helvetica findfont 24.3237 sf 0 0 m (+0.00) show NC gr 
 gsave  1936 2948 0 0 C 1600.5 2264.54 t 0 r /Helvetica findfont 38.9179 sf 0 0 m (\25510.00) show NC gr 
 gsave  1936 2948 0 0 C 1087.27 2135.62 t 0 r /Helvetica findfont 24.3237 sf 0 0 m (\2550.10) show NC gr 
 gsave  1936 2948 0 0 C 1087.27 2169.67 t 0 r /Helvetica findfont 24.3237 sf 0 0 m (+0.10) show NC gr 
 gsave  1936 2948 0 0 C 1011.87 2147.78 t 0 r /Helvetica findfont 38.9179 sf 0 0 m (1.10) show NC gr 
 gsave  1936 2948 0 0 C 1415.64 2135.62 t 0 r /Helvetica findfont 24.3237 sf 0 0 m (\2550.00) show NC gr 
 gsave  1936 2948 0 0 C 1415.64 2169.67 t 0 r /Helvetica findfont 24.3237 sf 0 0 m (+0.00) show NC gr 
 gsave  1936 2948 0 0 C 1306.18 2147.78 t 0 r /Helvetica findfont 38.9179 sf 0 0 m (\25510.00) show NC gr 
 gsave  1936 2948 0 0 C 1709.96 2135.62 t 0 r /Helvetica findfont 24.3237 sf 0 0 m (\2550.00) show NC gr 
 gsave  1936 2948 0 0 C 1709.96 2169.67 t 0 r /Helvetica findfont 24.3237 sf 0 0 m (+0.00) show NC gr 
 gsave  1936 2948 0 0 C 1600.5 2147.78 t 0 r /Helvetica findfont 38.9179 sf 0 0 m (\25510.00) show NC gr 
 gsave  1936 2948 0 0 C 1087.27 2016.43 t 0 r /Helvetica findfont 24.3237 sf 0 0 m (\2550.10) show NC gr 
 gsave  1936 2948 0 0 C 1087.27 2050.49 t 0 r /Helvetica findfont 24.3237 sf 0 0 m (+0.10) show NC gr 
 gsave  1936 2948 0 0 C 1011.87 2028.6 t 0 r /Helvetica findfont 38.9179 sf 0 0 m (1.20) show NC gr 
 gsave  1936 2948 0 0 C 1415.64 2016.43 t 0 r /Helvetica findfont 24.3237 sf 0 0 m (\2550.00) show NC gr 
 gsave  1936 2948 0 0 C 1415.64 2050.49 t 0 r /Helvetica findfont 24.3237 sf 0 0 m (+0.00) show NC gr 
 gsave  1936 2948 0 0 C 1306.18 2028.6 t 0 r /Helvetica findfont 38.9179 sf 0 0 m (\25510.00) show NC gr 
 gsave  1936 2948 0 0 C 1709.96 2016.43 t 0 r /Helvetica findfont 24.3237 sf 0 0 m (\2550.00) show NC gr 
 gsave  1936 2948 0 0 C 1709.96 2050.49 t 0 r /Helvetica findfont 24.3237 sf 0 0 m (+0.00) show NC gr 
 gsave  1936 2948 0 0 C 1600.5 2028.6 t 0 r /Helvetica findfont 38.9179 sf 0 0 m (\25510.00) show NC gr 
 gsave  1936 2948 0 0 C 1087.27 1897.25 t 0 r /Helvetica findfont 24.3237 sf 0 0 m (\2550.09) show NC gr 
 gsave  1936 2948 0 0 C 1087.27 1931.3 t 0 r /Helvetica findfont 24.3237 sf 0 0 m (+0.09) show NC gr 
 gsave  1936 2948 0 0 C 1011.87 1909.41 t 0 r /Helvetica findfont 38.9179 sf 0 0 m (1.05) show NC gr 
 gsave  1936 2948 0 0 C 1415.64 1897.25 t 0 r /Helvetica findfont 24.3237 sf 0 0 m (\2550.00) show NC gr 
 gsave  1936 2948 0 0 C 1415.64 1931.3 t 0 r /Helvetica findfont 24.3237 sf 0 0 m (+0.00) show NC gr 
 gsave  1936 2948 0 0 C 1306.18 1909.41 t 0 r /Helvetica findfont 38.9179 sf 0 0 m (\25510.00) show NC gr 
 gsave  1936 2948 0 0 C 1709.96 1897.25 t 0 r /Helvetica findfont 24.3237 sf 0 0 m (\2550.00) show NC gr 
 gsave  1936 2948 0 0 C 1709.96 1931.3 t 0 r /Helvetica findfont 24.3237 sf 0 0 m (+0.00) show NC gr 
 gsave  1936 2948 0 0 C 1600.5 1909.41 t 0 r /Helvetica findfont 38.9179 sf 0 0 m (\25510.00) show NC gr 
 gsave  1936 2948 0 0 C 1087.27 1778.06 t 0 r /Helvetica findfont 24.3237 sf 0 0 m (\2550.08) show NC gr 
 gsave  1936 2948 0 0 C 1087.27 1812.11 t 0 r /Helvetica findfont 24.3237 sf 0 0 m (+0.09) show NC gr 
 gsave  1936 2948 0 0 C 1011.87 1790.22 t 0 r /Helvetica findfont 38.9179 sf 0 0 m (1.09) show NC gr 
 gsave  1936 2948 0 0 C 1415.64 1778.06 t 0 r /Helvetica findfont 24.3237 sf 0 0 m (\2550.00) show NC gr 
 gsave  1936 2948 0 0 C 1415.64 1812.11 t 0 r /Helvetica findfont 24.3237 sf 0 0 m (+0.00) show NC gr 
 gsave  1936 2948 0 0 C 1306.18 1790.22 t 0 r /Helvetica findfont 38.9179 sf 0 0 m (\25510.00) show NC gr 
 gsave  1936 2948 0 0 C 1709.96 1778.06 t 0 r /Helvetica findfont 24.3237 sf 0 0 m (\2550.00) show NC gr 
 gsave  1936 2948 0 0 C 1709.96 1812.11 t 0 r /Helvetica findfont 24.3237 sf 0 0 m (+0.00) show NC gr 
 gsave  1936 2948 0 0 C 1600.5 1790.22 t 0 r /Helvetica findfont 38.9179 sf 0 0 m (\25510.00) show NC gr 
 gsave  1936 2948 0 0 C 1087.27 1658.88 t 0 r /Helvetica findfont 24.3237 sf 0 0 m (\2550.08) show NC gr 
 gsave  1936 2948 0 0 C 1087.27 1692.93 t 0 r /Helvetica findfont 24.3237 sf 0 0 m (+0.08) show NC gr 
 gsave  1936 2948 0 0 C 1011.87 1671.04 t 0 r /Helvetica findfont 38.9179 sf 0 0 m (0.97) show NC gr 
 gsave  1936 2948 0 0 C 1415.64 1658.88 t 0 r /Helvetica findfont 24.3237 sf 0 0 m (\2550.00) show NC gr 
 gsave  1936 2948 0 0 C 1415.64 1692.93 t 0 r /Helvetica findfont 24.3237 sf 0 0 m (+0.00) show NC gr 
 gsave  1936 2948 0 0 C 1306.18 1671.04 t 0 r /Helvetica findfont 38.9179 sf 0 0 m (\25510.00) show NC gr 
 gsave  1936 2948 0 0 C 1709.96 1658.88 t 0 r /Helvetica findfont 24.3237 sf 0 0 m (\2550.00) show NC gr 
 gsave  1936 2948 0 0 C 1709.96 1692.93 t 0 r /Helvetica findfont 24.3237 sf 0 0 m (+0.00) show NC gr 
 gsave  1936 2948 0 0 C 1600.5 1671.04 t 0 r /Helvetica findfont 38.9179 sf 0 0 m (\25510.00) show NC gr 
 gsave  1936 2948 0 0 C 1121.32 1539.69 t 0 r /Helvetica findfont 24.3237 sf 0 0 m (\2550.00) show NC gr 
 gsave  1936 2948 0 0 C 1121.32 1573.74 t 0 r /Helvetica findfont 24.3237 sf 0 0 m (+0.00) show NC gr 
 gsave  1936 2948 0 0 C 1011.87 1551.85 t 0 r /Helvetica findfont 38.9179 sf 0 0 m (\25510.00) show NC gr 
 gsave  1936 2948 0 0 C 1381.59 1539.69 t 0 r /Helvetica findfont 24.3237 sf 0 0 m (\2550.09) show NC gr 
 gsave  1936 2948 0 0 C 1381.59 1573.74 t 0 r /Helvetica findfont 24.3237 sf 0 0 m (+0.10) show NC gr 
 gsave  1936 2948 0 0 C 1306.18 1551.85 t 0 r /Helvetica findfont 38.9179 sf 0 0 m (1.19) show NC gr 
 gsave  1936 2948 0 0 C 1709.96 1539.69 t 0 r /Helvetica findfont 24.3237 sf 0 0 m (\2550.00) show NC gr 
 gsave  1936 2948 0 0 C 1709.96 1573.74 t 0 r /Helvetica findfont 24.3237 sf 0 0 m (+0.00) show NC gr 
 gsave  1936 2948 0 0 C 1600.5 1551.85 t 0 r /Helvetica findfont 38.9179 sf 0 0 m (\25510.00) show NC gr 
 gsave  1936 2948 0 0 C 1121.32 1420.5 t 0 r /Helvetica findfont 24.3237 sf 0 0 m (\2550.00) show NC gr 
 gsave  1936 2948 0 0 C 1121.32 1454.56 t 0 r /Helvetica findfont 24.3237 sf 0 0 m (+0.00) show NC gr 
 gsave  1936 2948 0 0 C 1011.87 1432.67 t 0 r /Helvetica findfont 38.9179 sf 0 0 m (\25510.00) show NC gr 
 gsave  1936 2948 0 0 C 1381.59 1420.5 t 0 r /Helvetica findfont 24.3237 sf 0 0 m (\2550.09) show NC gr 
 gsave  1936 2948 0 0 C 1381.59 1454.56 t 0 r /Helvetica findfont 24.3237 sf 0 0 m (+0.10) show NC gr 
 gsave  1936 2948 0 0 C 1306.18 1432.67 t 0 r /Helvetica findfont 38.9179 sf 0 0 m (1.23) show NC gr 
 gsave  1936 2948 0 0 C 1709.96 1420.5 t 0 r /Helvetica findfont 24.3237 sf 0 0 m (\2550.00) show NC gr 
 gsave  1936 2948 0 0 C 1709.96 1454.56 t 0 r /Helvetica findfont 24.3237 sf 0 0 m (+0.00) show NC gr 
 gsave  1936 2948 0 0 C 1600.5 1432.67 t 0 r /Helvetica findfont 38.9179 sf 0 0 m (\25510.00) show NC gr 
 gsave  1936 2948 0 0 C 1121.32 1303.75 t 0 r /Helvetica findfont 24.3237 sf 0 0 m (\2550.00) show NC gr 
 gsave  1936 2948 0 0 C 1121.32 1337.8 t 0 r /Helvetica findfont 24.3237 sf 0 0 m (+0.00) show NC gr 
 gsave  1936 2948 0 0 C 1011.87 1315.91 t 0 r /Helvetica findfont 38.9179 sf 0 0 m (\25510.00) show NC gr 
 gsave  1936 2948 0 0 C 1381.59 1306.18 t 0 r /Helvetica findfont 24.3237 sf 0 0 m (\2550.09) show NC gr 
 gsave  1936 2948 0 0 C 1381.59 1337.8 t 0 r /Helvetica findfont 24.3237 sf 0 0 m (+0.09) show NC gr 
 gsave  1936 2948 0 0 C 1306.18 1315.91 t 0 r /Helvetica findfont 38.9179 sf 0 0 m (1.14) show NC gr 
 gsave  1936 2948 0 0 C 1709.96 1303.75 t 0 r /Helvetica findfont 24.3237 sf 0 0 m (\2550.00) show NC gr 
 gsave  1936 2948 0 0 C 1709.96 1337.8 t 0 r /Helvetica findfont 24.3237 sf 0 0 m (+0.00) show NC gr 
 gsave  1936 2948 0 0 C 1600.5 1315.91 t 0 r /Helvetica findfont 38.9179 sf 0 0 m (\25510.00) show NC gr 
 gsave  1936 2948 0 0 C 1121.32 1184.56 t 0 r /Helvetica findfont 24.3237 sf 0 0 m (\2550.00) show NC gr 
 gsave  1936 2948 0 0 C 1121.32 1218.62 t 0 r /Helvetica findfont 24.3237 sf 0 0 m (+0.00) show NC gr 
 gsave  1936 2948 0 0 C 1011.87 1196.73 t 0 r /Helvetica findfont 38.9179 sf 0 0 m (\25510.00) show NC gr 
 gsave  1936 2948 0 0 C 1381.59 1187 t 0 r /Helvetica findfont 24.3237 sf 0 0 m (\2550.09) show NC gr 
 gsave  1936 2948 0 0 C 1381.59 1218.62 t 0 r /Helvetica findfont 24.3237 sf 0 0 m (+0.10) show NC gr 
 gsave  1936 2948 0 0 C 1306.18 1196.73 t 0 r /Helvetica findfont 38.9179 sf 0 0 m (1.17) show NC gr 
 gsave  1936 2948 0 0 C 1709.96 1184.56 t 0 r /Helvetica findfont 24.3237 sf 0 0 m (\2550.00) show NC gr 
 gsave  1936 2948 0 0 C 1709.96 1218.62 t 0 r /Helvetica findfont 24.3237 sf 0 0 m (+0.00) show NC gr 
 gsave  1936 2948 0 0 C 1600.5 1196.73 t 0 r /Helvetica findfont 38.9179 sf 0 0 m (\25510.00) show NC gr 
 gsave  1936 2948 0 0 C 1121.32 1065.38 t 0 r /Helvetica findfont 24.3237 sf 0 0 m (\2550.00) show NC gr 
 gsave  1936 2948 0 0 C 1121.32 1099.43 t 0 r /Helvetica findfont 24.3237 sf 0 0 m (+0.00) show NC gr 
 gsave  1936 2948 0 0 C 1011.87 1077.54 t 0 r /Helvetica findfont 38.9179 sf 0 0 m (\25510.00) show NC gr 
 gsave  1936 2948 0 0 C 1381.59 1065.38 t 0 r /Helvetica findfont 24.3237 sf 0 0 m (\2550.09) show NC gr 
 gsave  1936 2948 0 0 C 1381.59 1099.43 t 0 r /Helvetica findfont 24.3237 sf 0 0 m (+0.10) show NC gr 
 gsave  1936 2948 0 0 C 1306.18 1077.54 t 0 r /Helvetica findfont 38.9179 sf 0 0 m (1.16) show NC gr 
 gsave  1936 2948 0 0 C 1709.96 1065.38 t 0 r /Helvetica findfont 24.3237 sf 0 0 m (\2550.00) show NC gr 
 gsave  1936 2948 0 0 C 1709.96 1099.43 t 0 r /Helvetica findfont 24.3237 sf 0 0 m (+0.00) show NC gr 
 gsave  1936 2948 0 0 C 1600.5 1077.54 t 0 r /Helvetica findfont 38.9179 sf 0 0 m (\25510.00) show NC gr 
 gsave  1936 2948 0 0 C 1121.32 946.192 t 0 r /Helvetica findfont 24.3237 sf 0 0 m (\2550.00) show NC gr 
 gsave  1936 2948 0 0 C 1121.32 980.245 t 0 r /Helvetica findfont 24.3237 sf 0 0 m (+0.00) show NC gr 
 gsave  1936 2948 0 0 C 1011.87 958.353 t 0 r /Helvetica findfont 38.9179 sf 0 0 m (\25510.00) show NC gr 
 gsave  1936 2948 0 0 C 1374.29 948.624 t 0 r /Helvetica findfont 24.3237 sf 0 0 m (\2550.09) show NC gr 
 gsave  1936 2948 0 0 C 1374.29 980.245 t 0 r /Helvetica findfont 24.3237 sf 0 0 m (+0.10) show NC gr 
 gsave  1936 2948 0 0 C 1306.18 958.353 t 0 r /Helvetica findfont 38.9179 sf 0 0 m (1.11) show NC gr 
 gsave  1936 2948 0 0 C 1709.96 946.192 t 0 r /Helvetica findfont 24.3237 sf 0 0 m (\2550.00) show NC gr 
 gsave  1936 2948 0 0 C 1709.96 980.245 t 0 r /Helvetica findfont 24.3237 sf 0 0 m (+0.00) show NC gr 
 gsave  1936 2948 0 0 C 1600.5 958.353 t 0 r /Helvetica findfont 38.9179 sf 0 0 m (\25510.00) show NC gr 
 gsave  1936 2948 0 0 C 1121.32 827.005 t 0 r /Helvetica findfont 24.3237 sf 0 0 m (\2550.00) show NC gr 
 gsave  1936 2948 0 0 C 1121.32 861.059 t 0 r /Helvetica findfont 24.3237 sf 0 0 m (+0.00) show NC gr 
 gsave  1936 2948 0 0 C 1011.87 839.167 t 0 r /Helvetica findfont 38.9179 sf 0 0 m (\25510.00) show NC gr 
 gsave  1936 2948 0 0 C 1381.59 827.005 t 0 r /Helvetica findfont 24.3237 sf 0 0 m (\2550.10) show NC gr 
 gsave  1936 2948 0 0 C 1381.59 861.059 t 0 r /Helvetica findfont 24.3237 sf 0 0 m (+0.11) show NC gr 
 gsave  1936 2948 0 0 C 1306.18 839.167 t 0 r /Helvetica findfont 38.9179 sf 0 0 m (1.13) show NC gr 
 gsave  1936 2948 0 0 C 1709.96 827.005 t 0 r /Helvetica findfont 24.3237 sf 0 0 m (\2550.00) show NC gr 
 gsave  1936 2948 0 0 C 1709.96 861.059 t 0 r /Helvetica findfont 24.3237 sf 0 0 m (+0.00) show NC gr 
 gsave  1936 2948 0 0 C 1600.5 839.167 t 0 r /Helvetica findfont 38.9179 sf 0 0 m (\25510.00) show NC gr 
 gsave  1936 2948 0 0 C 1121.32 707.819 t 0 r /Helvetica findfont 24.3237 sf 0 0 m (\2550.00) show NC gr 
 gsave  1936 2948 0 0 C 1121.32 741.873 t 0 r /Helvetica findfont 24.3237 sf 0 0 m (+0.00) show NC gr 
 gsave  1936 2948 0 0 C 1011.87 719.981 t 0 r /Helvetica findfont 38.9179 sf 0 0 m (\25510.00) show NC gr 
 gsave  1936 2948 0 0 C 1381.59 707.819 t 0 r /Helvetica findfont 24.3237 sf 0 0 m (\2550.12) show NC gr 
 gsave  1936 2948 0 0 C 1381.59 741.873 t 0 r /Helvetica findfont 24.3237 sf 0 0 m (+0.12) show NC gr 
 gsave  1936 2948 0 0 C 1306.18 719.981 t 0 r /Helvetica findfont 38.9179 sf 0 0 m (1.16) show NC gr 
 gsave  1936 2948 0 0 C 1709.96 707.819 t 0 r /Helvetica findfont 24.3237 sf 0 0 m (\2550.00) show NC gr 
 gsave  1936 2948 0 0 C 1709.96 741.873 t 0 r /Helvetica findfont 24.3237 sf 0 0 m (+0.00) show NC gr 
 gsave  1936 2948 0 0 C 1600.5 719.981 t 0 r /Helvetica findfont 38.9179 sf 0 0 m (\25510.00) show NC gr 
 gsave  1936 2948 0 0 C 1121.32 588.633 t 0 r /Helvetica findfont 24.3237 sf 0 0 m (\2550.00) show NC gr 
 gsave  1936 2948 0 0 C 1121.32 622.686 t 0 r /Helvetica findfont 24.3237 sf 0 0 m (+0.00) show NC gr 
 gsave  1936 2948 0 0 C 1011.87 600.795 t 0 r /Helvetica findfont 38.9179 sf 0 0 m (\25510.00) show NC gr 
 gsave  1936 2948 0 0 C 1415.64 588.633 t 0 r /Helvetica findfont 24.3237 sf 0 0 m (\2550.00) show NC gr 
 gsave  1936 2948 0 0 C 1415.64 622.686 t 0 r /Helvetica findfont 24.3237 sf 0 0 m (+0.00) show NC gr 
 gsave  1936 2948 0 0 C 1306.18 600.795 t 0 r /Helvetica findfont 38.9179 sf 0 0 m (\25510.00) show NC gr 
 gsave  1936 2948 0 0 C 1675.9 591.066 t 0 r /Helvetica findfont 24.3237 sf 0 0 m (\2550.11) show NC gr 
 gsave  1936 2948 0 0 C 1675.9 622.686 t 0 r /Helvetica findfont 24.3237 sf 0 0 m (+0.12) show NC gr 
 gsave  1936 2948 0 0 C 1600.5 600.795 t 0 r /Helvetica findfont 38.9179 sf 0 0 m (1.14) show NC gr 
 gsave  1936 2948 0 0 C 1121.32 469.447 t 0 r /Helvetica findfont 24.3237 sf 0 0 m (\2550.00) show NC gr 
 gsave  1936 2948 0 0 C 1121.32 503.5 t 0 r /Helvetica findfont 24.3237 sf 0 0 m (+0.00) show NC gr 
 gsave  1936 2948 0 0 C 1011.87 481.609 t 0 r /Helvetica findfont 38.9179 sf 0 0 m (\25510.00) show NC gr 
 gsave  1936 2948 0 0 C 1415.64 469.447 t 0 r /Helvetica findfont 24.3237 sf 0 0 m (\2550.00) show NC gr 
 gsave  1936 2948 0 0 C 1415.64 503.5 t 0 r /Helvetica findfont 24.3237 sf 0 0 m (+0.00) show NC gr 
 gsave  1936 2948 0 0 C 1306.18 481.609 t 0 r /Helvetica findfont 38.9179 sf 0 0 m (\25510.00) show NC gr 
 gsave  1936 2948 0 0 C 1675.9 469.447 t 0 r /Helvetica findfont 24.3237 sf 0 0 m (\2550.09) show NC gr 
 gsave  1936 2948 0 0 C 1675.9 503.5 t 0 r /Helvetica findfont 24.3237 sf 0 0 m (+0.10) show NC gr 
 gsave  1936 2948 0 0 C 1600.5 481.609 t 0 r /Helvetica findfont 38.9179 sf 0 0 m (1.13) show NC gr 
 gsave  1936 2948 0 0 C 1121.32 352.694 t 0 r /Helvetica findfont 24.3237 sf 0 0 m (\2550.00) show NC gr 
 gsave  1936 2948 0 0 C 1121.32 386.747 t 0 r /Helvetica findfont 24.3237 sf 0 0 m (+0.00) show NC gr 
 gsave  1936 2948 0 0 C 1011.87 364.855 t 0 r /Helvetica findfont 38.9179 sf 0 0 m (\25510.00) show NC gr 
 gsave  1936 2948 0 0 C 1415.64 352.694 t 0 r /Helvetica findfont 24.3237 sf 0 0 m (\2550.00) show NC gr 
 gsave  1936 2948 0 0 C 1415.64 386.747 t 0 r /Helvetica findfont 24.3237 sf 0 0 m (+0.00) show NC gr 
 gsave  1936 2948 0 0 C 1306.18 364.855 t 0 r /Helvetica findfont 38.9179 sf 0 0 m (\25510.00) show NC gr 
 gsave  1936 2948 0 0 C 1675.9 352.694 t 0 r /Helvetica findfont 24.3237 sf 0 0 m (\2550.09) show NC gr 
 gsave  1936 2948 0 0 C 1675.9 386.747 t 0 r /Helvetica findfont 24.3237 sf 0 0 m (+0.10) show NC gr 
 gsave  1936 2948 0 0 C 1600.5 364.855 t 0 r /Helvetica findfont 38.9179 sf 0 0 m (1.08) show NC gr 
 gsave  1936 2948 0 0 C 1121.32 233.507 t 0 r /Helvetica findfont 24.3237 sf 0 0 m (\2550.00) show NC gr 
 gsave  1936 2948 0 0 C 1121.32 267.561 t 0 r /Helvetica findfont 24.3237 sf 0 0 m (+0.00) show NC gr 
 gsave  1936 2948 0 0 C 1011.87 245.669 t 0 r /Helvetica findfont 38.9179 sf 0 0 m (\25510.00) show NC gr 
 gsave  1936 2948 0 0 C 1415.64 233.507 t 0 r /Helvetica findfont 24.3237 sf 0 0 m (\2550.00) show NC gr 
 gsave  1936 2948 0 0 C 1415.64 267.561 t 0 r /Helvetica findfont 24.3237 sf 0 0 m (+0.00) show NC gr 
 gsave  1936 2948 0 0 C 1306.18 245.669 t 0 r /Helvetica findfont 38.9179 sf 0 0 m (\25510.00) show NC gr 
 gsave  1936 2948 0 0 C 1668.61 233.507 t 0 r /Helvetica findfont 24.3237 sf 0 0 m (\2550.10) show NC gr 
 gsave  1936 2948 0 0 C 1668.61 267.561 t 0 r /Helvetica findfont 24.3237 sf 0 0 m (+0.11) show NC gr 
 gsave  1936 2948 0 0 C 1600.5 245.669 t 0 r /Helvetica findfont 38.9179 sf 0 0 m (1.31) show NC gr 
 gsave  1936 2948 0 0 C 1121.32 114.321 t 0 r /Helvetica findfont 24.3237 sf 0 0 m (\2550.00) show NC gr 
 gsave  1936 2948 0 0 C 1121.32 148.375 t 0 r /Helvetica findfont 24.3237 sf 0 0 m (+0.00) show NC gr 
 gsave  1936 2948 0 0 C 1011.87 126.483 t 0 r /Helvetica findfont 38.9179 sf 0 0 m (\25510.00) show NC gr 
 gsave  1936 2948 0 0 C 1415.64 114.321 t 0 r /Helvetica findfont 24.3237 sf 0 0 m (\2550.00) show NC gr 
 gsave  1936 2948 0 0 C 1415.64 148.375 t 0 r /Helvetica findfont 24.3237 sf 0 0 m (+0.00) show NC gr 
 gsave  1936 2948 0 0 C 1306.18 126.483 t 0 r /Helvetica findfont 38.9179 sf 0 0 m (\25510.00) show NC gr 
 gsave  1936 2948 0 0 C 1675.9 114.321 t 0 r /Helvetica findfont 24.3237 sf 0 0 m (\2550.25) show NC gr 
 gsave  1936 2948 0 0 C 1675.9 148.375 t 0 r /Helvetica findfont 24.3237 sf 0 0 m (+0.31) show NC gr 
 gsave  1936 2948 0 0 C 1600.5 126.483 t 0 r /Helvetica findfont 38.9179 sf 0 0 m (1.33) show NC gr 
 gsave  1936 2948 0 0 C 1041.05 2884.79 t 0 r /Helvetica findfont 48.6474 sf 0 0 m (\)) show NC gr 
 gsave  1936 2948 0 0 C 1016.73 2884.79 t 0 r /Symbol findfont 48.6474 sf 0 0 m (g) show NC gr 
 gsave  1936 2948 0 0 C 1002.14 2884.79 t 0 r /Helvetica findfont 48.6474 sf 0 0 m (\() show NC gr 
 gsave  1936 2948 0 0 C 982.677 2858.03 t 0 r /Helvetica findfont 31.6208 sf 0 0 m (T) show NC gr 
 gsave  1936 2948 0 0 C 955.921 2884.79 t 0 r /Helvetica findfont 48.6474 sf 0 0 m (p) show NC gr  884 2895 m 60 X s 914 2895 m20
 gsave  1936 2948 0 0 C 1369.42 2884.79 t 0 r /Helvetica findfont 48.6474 sf 0 0 m (\)|) show NC gr 
 gsave  1936 2948 0 0 C 1345.1 2884.79 t 0 r /Symbol findfont 48.6474 sf 0 0 m (g) show NC gr 
 gsave  1936 2948 0 0 C 1330.51 2884.79 t 0 r /Helvetica findfont 48.6474 sf 0 0 m (\() show NC gr 
 gsave  1936 2948 0 0 C 1303.75 2884.79 t 0 r /Symbol findfont 48.6474 sf 0 0 m (h) show NC gr 
 gsave  1936 2948 0 0 C 1294.02 2884.79 t 0 r /Helvetica findfont 48.6474 sf 0 0 m (|) show NC gr  1 0 0 c 1222 2895 m 60 X s 1252 2895 m24 black
 gsave  1936 2948 0 0 C 1656.44 2884.79 t 0 r /Helvetica findfont 48.6474 sf 0 0 m (\(j1\)) show NC gr 
 gsave  1936 2948 0 0 C 1636.98 2858.03 t 0 r /Helvetica findfont 31.6208 sf 0 0 m (T) show NC gr 
 gsave  1936 2948 0 0 C 1610.23 2884.79 t 0 r /Helvetica findfont 48.6474 sf 0 0 m (p) show NC gr  0 0 1 c 1538 2895 m 60 X s 1568 2895 m22 black
 gsave  1936 2948 0 0 C 289.452 2870.2 t 0 r /Helvetica-BoldOblique findfont 48.6474 sf 0 0 m (ATLAS) show NC gr 
 gsave  1936 2948 0 0 C 484.041 2870.2 t 0 r /Helvetica findfont 48.6474 sf 0 0 m (Internal) show NC gr  290 95 m 1607 X s 437 169 m -74 Y s 510 132 m -37 Y s 583 132 m -37 Y s 656 132 m -37 Y s 729 169 m -74 Y s 802 132 m -37 Y s 875 132 m -37 Y s
 948 132 m -37 Y s 1021 169 m -74 Y s 1094 132 m -37 Y s 1167 132 m -37 Y s 1240 132 m -37 Y s 1313 169 m -74 Y s 1386 132 m -37 Y s 1459 132 m -37 Y s 1532 132 m -37 Y s 1605 169 m -74 Y s 1678 132 m -37 Y s 1751 132 m -37 Y s 1824 132 m -37 Y s
 1897 169 m -74 Y s 437 169 m -74 Y s 363 132 m -37 Y s 290 132 m -37 Y s 290 2829 m 1607 X s 437 2756 m 73 Y s 510 2792 m 37 Y s 583 2792 m 37 Y s 656 2792 m 37 Y s 729 2756 m 73 Y s 802 2792 m 37 Y s 875 2792 m 37 Y s 948 2792 m 37 Y s 1021 2756 m
 73 Y s 1094 2792 m 37 Y s 1167 2792 m 37 Y s 1240 2792 m 37 Y s 1313 2756 m 73 Y s 1386 2792 m 37 Y s 1459 2792 m 37 Y s 1532 2792 m 37 Y s 1605 2756 m 73 Y s 1678 2792 m 37 Y s 1751 2792 m 37 Y s 1824 2792 m 37 Y s 1897 2756 m 73 Y s 437 2756 m 73
 Y s 363 2792 m 37 Y s 290 2792 m 37 Y s 290 95 m 2734 Y s
 gr  gr showpage
end
%%EOF
